labels,words
-1,哈哈哈哈 哈哈哈 套 死 蝗虫 
-1,股托 骗子 - - - 炒股 就 那 几招 
1,11 号 业绩 出来 最少 几个 涨停 大家 等 着 看吧 
1,下午 直播 涨停 
-1,风险 要 远远 大于 机会 37 亿 融资 盘 随时 会 爆仓 
0,华昌达 ： 终止 重大 资产重组 明日 复牌 
1,屮 屮 华泰 证券 融资 完成 就是 中国 高盛 ≈ 二个 第一 : 1 定增 完成 诞生 中国 第一 大 券商 龙头 好事 大 利好 
1,华大基因 行情 火热 
1,万达 酒店 发展 复牌 涨超 20 将 注入 两家 轻 资产 公司 
1,亿纬锂 能 主力 刻意 做盘 暗藏 一大 玄机 股价 浮动 不安 三方 资金 全面 护盘 暗中 吸筹 势必 强势 上涨 
0,2 点 进入 异动 倒计时 
1,胜局 已 定 就是 要大涨 
0,美女 帅哥 们 你 智商 高 还是 情商 高 
0,洗衣机 离合器 及 电动工具 零部件 生产商 奇精 机械 今起 招股 
1,洪涛 明天 应该 去 61 到 就 动手 这样 风险 很小 
0,让 我 用 两家 重要 公司 资料 来 说明 我 意思 
0,交流 谈心 谈股 论金 涨跌 起落 不改 初心 
1,国家 能源 局 批复 华龙 一号 技术 融合 方案 核电 建设 迎 利好 
-1,每 一次 上涨 都 是 为了 更好 下跌 城 投真贱 
-1,狗托 深圳 网友 狗来 快 跑 
-1,洗盘 洗 差不多 吧 你 个 废物 主力 还 不 起飞 更待何时 shabi 主力 
1,重特大 利好 刚刚 全部 换 买 300666 江丰 电子 
-1,套牢 山顶 韭菜 回家 叫 你们 十八辈 祖宗 来 抄底 不能 拉 股价 说 什么 利好 都 是 假 
0,格力电器 : 关于 收到 行政 监管 措施 决定书 公告 
1,量 增价 升闭 着 眼睛 都 可以 买 
-1,新股 模式 华大基因 开板 暗示 风险 小散 还 盲目 进套 警惕 才行 
-1,这么 跌 也 没 啥 割肉 主力 也 很 无奈 吧 自导自演 却 没有 观众 上 当真 是 演技 太 拙劣 
1,换云 铝 祝 大家 发财 
1,先河 环保 高位 盘整 不改 小牛 格局 迎来 绝佳 补仓 契机 教 你 如何 买卖 dxbdb 
1,拥有 PLC 核心技术 民族 品牌 骄傲 
-1,远方 狗 你 小号 真不少 
-1,大盘 跌 呼叫 万手 哥 出来 护盘 
-1,刚才 有个 从 905 直接 912 买入 千手 拉盘 又 没动静 什么 意思 
-1,永远 离开 这个 吃 人 市场 
1,奋达 科技 涨停 
-1,扔句 话 这 托子 骗子 不死 这股 不会 有 什么 好 行情 [ 不屑 ] 
-1,今天 一定 会 跌破 1758 
1,一 万股 在手 唱空 狗 去 别 地玩力 挺 重整 尽快 重组 
-1,无处不在 空狗 
-1,我糙 你 刷屏 人渣 先人 天天 刷屏 把 尖峰 害惨 没有 你们 这些 疯狗 尖峰 早该 上 20 
1,晨鸣 三年 利润 之 和 超现 公司 市值 今年 涨价 部分 贡献 55 亿元 多 
1,周鸿祎 360 火已 点燃 
-1,要 连续 阴跌 么 明天 啥 走势 
1,我太牛 3399 卖 3346 接回 我 把 主力 当 掌中 物 
-1,天天 这里 等 着 亏 钱 都 是 输家 败家子 
1,看到 力帆 车 给 好评 
0,正川 股份 等 3 只 新股 8 月 10 日 申购 指南 附打 新 攻略 
0,京东方 A 投资者 天堂 投机者 地狱 
-1,叫 你们 别卖 你们 不 听 全部 被 主力 吃 回去 水泥 里面 就 河北 明确 限产 
1,河钢 股份 破解 买 跌 买 涨 小小 技巧 你 现在 领悟 多少 
1,明天 一定 涨停 
-1,这死矿 最终 变 St 退市 即使 䏻 赚点 钱 也 不及 银行利息 一一 看看 云铝股份 
0,与 君共赏 - HiVi 惠威 CES 
-1,明天 焖 杀 无脑 人 
1,告诉 你们 主力 要 抬 价格 拿 好 筹码 
-1,还 没有 形成 热点 ； 杭齿 既 被 看成 美女 中有 公安局 监管 色鬼 眼红 
0,欧洲 毒 鸡蛋 事件 ： 催生 食品 追溯 源头 标识 重要性 
-1,是不是 又 要 下个 台阶 
1,大家 没关系 庄家 会 回到 193 
-1,爱康 科技 电话 知道 打电话 骂 他妈的 
1,最后 一天 机会 买入 抢 抢 抢 
-1,破 5 日均 明天 低开 闷 杀 
1,满仓 杀入 哈哈 砸 下来 [ 胜利 ] [ 胜利 ] [ 胜利 ] 
-1,指数 反弹 时 怎么 那么 迟钝 
0,600959 : 江苏 有线 重大 资产重组 相关 进展 公告 
1,明天 早上 拉升 五个 点 以上 不要 追下 支见 大 决策 后面 
-1,每天 看 都 心烦 没有 一点 反转 感觉 天天 压盘 也 没有 资金 关注 
-1,幸亏 卖 这个 主力 就是 个 垃圾 不敢 逆势 拉升 
-1,每 只 股票 只要 出现 大爱 江河 类人 都 一定 暴跌 
-1,北京 小花 大家 干 你 妈 你 是 自豪 还是 嫉妒 呀 
-1,浙大 网新 昨天 10 日线 都 成 阻力 主力 太能 装 而 今天 大盘 大跌 
0,钛酸 锂电池 将成 动力电池 市场 主流 
1,埃斯 顿 真是 牛红 啦 
-1,本 以为 25 以 是 底 现在 看来 20 都 有 可能 
1,上周 发帖 说事 不过 7 本周 收阴有 反对 吗 
-1,这个 股票 有 赚钱 吗 ? 
1,看看 璐 安 一批 天天 喊 多 进璐安 一倍 钱 早就 赚 
-1,1652 出 后悔 求 主力 给 个 机会 让 我 接回来 吧 
-1,股市 o 小 傻 最近 亏损 厉害 吧 到处 嘴炮 你 活该 
-1,快 挂单 250 元 卖出 快撤 这 是 档 命令 
1,未来 能 赚钱 确定性 标的 600801 
1,378 元 买入 500 股 欢迎 主力 狗 比庄 砸 盘 [ 胜利 ] 
-1,基本 沿着 60 日线 下方 运行 难以逾越 屏障 
-1,主力 请 你 下 杀 更 猛烈 些 别 假托 大单 做 样子 
1,002557 今天 给力 
1,量 增价 升闭 着 眼睛 都 可以 买 
-1,中葡 害人不浅 
-1,还 差 一分 拒 不 补缺 口 
0,保利 地产 600048 ) 融资 融券 信息 08 - 09 ) 
0,游戏 规则 也 会 变 希望 年 年 都 会 有 今年 也 不要 少 这 是 传统 
1,尾盘 大单 吃 一口 
1,今天 走势 还是 不错 唯一 缺点 20 日 均线 上 量 太大 涨幅 不 大 
-1,龙大 持股 成本 约 24 元证金 持股 成本 约 22 元 哪个 傻子 会拉让 他们 解套 
-1,散户 用 脑子 想想 ： 庄家 机构 真 要是 想 让 波导 回到 上升 通道 用 着 一天 一天 涨个 几分 一毛 
1,今天 国安 你 爱理不理 以后 国安 你 高攀不起 
-1,都 是 逃命 节奏 220 手卖单 挂上去 没多久 就 撤 以 低价卖出 我 也 是 服 
0,整天 瞎 哔 哔 看好 就 留 着 不 看好 就 走 人 
1,各位 还是 要 感谢 媒体报道 请 看 
-1,创业 版 故意 被 压 着 
-1,稀哥 都 什么 时候 咱能 不能 别 再 吹牛 B 
-1,有量 不 知道 有价 没 [ 摊手 ] 
0,中签 没有 卖掉 战友 来 报道 
-1,竞价 涨停 又 打 下来 开盘 快 跑 
-1,重大 利空 ： 原材料 暴涨 扬子 成本 大增 三季度 开始 业绩 亏损 
-1,有人 恶意 做空 应该 严查 
0,荣之联 : 关于 拟 参与 竞标 四川 锦程 消费 金融 有限责任 公司 股权 转让 和 增资 扩股 项目 公告 
-1,看 一 朋友 发 帖 说 穷 地方 股票 不能 买 确实 是 这样 穷 地 开个 破 企业 要钱 没 钱 
0,黄金 回撤 1272 - 1274 区域 直接 跟 多 目标 看 1281 
1,进入 只 等 002230 成为 世界级 伟大 公司 到 时 你 也 伟大 投资人 
-1,今日 大盘 分析 ： 消耗 行情 下且 涨且 珍惜 
0,《 战狼 2 》 票房 推演 与 北京 文化 股价 推演 
-1,沙比 们 我 救 很多 人 让 他们 跑 剩下 沙比 自重 再见 
-1,今天 敢 逆势 拉涨 我 叫 你 爷爷 
0,8 月 9 日 北方 稀土 操作 提议 
-1,这 垃圾股 基本上 都 是 散户 补仓 今年 55 是 必破 拭目以待 [ 拜神 ] [ 胜利 ] 
0,长油 5 : 重大 事项 进展 公告 
-1,10 元 以下 卖出 你 就是 个 傻子 
-1,别 被 郭家队 吓破 胆子 郭家队 管 国内 市场 管不住 国际期货 市场 
1,20170810002675 东诚 药业 此刻 进场 12 元 附近 3 成仓 
-1,下午 继续 跌 给 幻想 V 一 棒子 [ 好 困惑 ] 
-1,这货跌 起来 真是 个 猛男 一点 都 不含糊 西矿 散户 太 多 只是 最 根本 原因 
-1,今天 手欠 追高 八 十多万 全部 家当 满仓 高手 给 个 建议 不 知道 买 对否 
-1,老 或 你 那 几个 唱 多 是不是 害人害己 可以 安静 安静 吗 
1,部分 钢 呸 上涨 100 元 开始 挂 档 加速 同志 们 童鞋 们 请 坐 好车 
0,看 政策 和 这个 趋势 此股 若 上 破 969 - 942 中值 最大 可能 区间 850 ± 0 
1,量 价齐升 明天 还要 涨 或许 可以 冲刺 涨停 
0,市场 最终 还是 回到 炒 业绩 股来 
-1,“ 东方 豆腐 网 ” 说 ： 明天 开始 连续 10 个 以上 跌停板 不知 该 高人长 何模样 
-1,如果 这 股 今年 上 八元 我 从此 退出 股市 立帖 为 正 六元 今年 都 上 不了 
-1,号 外号 外 第一 垃圾股 千万 小心 
1,79 元 本 入住 秋林 波段 爽歪歪 
-1,中泰 147 亿吨 煤炭 采矿权 手续 怎么 还 办 不 下来 
-1,捷捷 微电 8 月 10 日 盘中 跌幅 达 5 
1,走 啦 走 啦 抄底 橡胶 去 抄底 富 三代 追涨 毁 一生 
0,福建 水泥 今天 换手率 百分之十 一点多 怎么 这么 高是 好事 还是 坏事 
0,证监会 电话 0106621018201066210166 大家 动 起来 
-1,20 日 均线 反复 震荡 
0,000915 与 2821 比较 一季度 业绩 差不多 究竟 值得 买入 
1,明去 配资 公司 配 十倍 一揽子 抄底 ～ 
1,830 补 10000 实在 是 没 钱 大家 快 上 
0,今天 当 你们 迷茫 不 知道 抉择 时候 我来 告诉 你 下半年 买 什么 
1,周五 2 板 2405 元 全国 挂单 捂 股大 行动 捂紧 捂 紧 
-1,今天 还 跌 你 敢 买 吗 
-1,看来 要 崩盘 看来 要 崩盘 
-1,这么 跌 107 成本 还有 解套 可能 吗 
-1,朦胧 利空 将 至 股价 试探 9 元 支撑 
0,央行 ： 将 密切 关注 灾情 对 经济 金融 运行 影响 
-1,阳泉 煤业 压根 没涨 
1,等一等 才能 走 更 远 
-1,吧 里 帕瓦罗蒂 死 是 被 融钰 吓 疯 融钰 复牌 估计 吓死 或 跳楼 事件 会 这 几个 
1,强者 恒强 牛市 显现 最后 闯入 机会 
1,创业板 反弹 “ 国家队 ” 提前 抄底 证 金汇 金增持 10 家 公司 
1,爆发 正在 蕴酿 抓紧 机会 
-1,跟 跌 不 跟 涨 垃圾 方大 集团 垃圾 公司 
1,老板 电器 没有 任何 溢价 便 可 坐享 年均 增值 40 年化 收益 已超 股神 巴菲特 
1,大秦铁路 即将 “ 脱胎换骨 ” 
1,资源 涨得 很 高 酒类 板块 会 起来 接力 
1,2017 年 半年度 业绩 快报 点评 ： 草铵 膦 价格 高度 景气 中 报 业绩 创新 高 
0,601668 : 中国 建筑 2017 年 半年度 业绩 预增 公告 
0,华夏银行 估计 中 报 业绩 068 元 不 分配 不 转增 
-1,调整 仍会 延续 多一份 谨慎 
-1,分化 源于 分歧 我 嗅到 风险 味道 
0,600021 : 上海 电力 关于 上网 电价 调整 公告 
0,098 元 业绩 次新股 仅此 1 家 江苏 银行 股价 不到 10 块 
1,二 他 麻麻 快拿大 木盆 来 我 可 赶上 这 拨儿 
-1,葛洲坝 提升 空间 还有 多少 减仓 操作 合适 么 想不到 还会 跌 这么 深 
1,买东 财贵价 软件 真值 能 指引 我们 向 前进 你 买 吗 
-1,看来 停产 检修 是 真的 喽大 股东 增持 是 掩护 战友 后面 还 不 知道 有 啥 利空 
-1,尼玛 比 成功 把 你 大爷 500 股骗 去 [ 失望 ] 
1,四川双马 或成 中国 足球 青训 第一股 
-1,涨幅 榜 从来不 上 跌幅 榜上有名 
-1,大盘 明天 暴跌 概率 百分之 88 
0,600381 : 青海 春天 关于 非 公开 发行 股份 限售 股 部分 上市 流通 提示性 公告 
-1,那条 天天 狂叫 过河 老狗 呢 
0,证监会 深交所 中纪委 一起 举报 深交所 已 发邮件 举报 
1,时间 够 [ 大笑 ] [ 大笑 ] [ 大笑 ] 开始 正式 破 3300 [ 胜利 ] [ 鼓掌 ] [ 兴奋 ] [ 加油 
-1,2390 已经 割肉 空仓 谢谢 接盘 侠 
1,沧州 大化 市盈率 超低 是 绩优股 上升 空间 很大 一路 持有 
1,靠 这时 还有 人压盘 全部 吃掉 
0,601985 : 中国 核电 第二届 董事会 第十八次 会议 决议 公告 
-1,“ 小 风筝 飘过 ” 怂货 ： 比试 周 收益 敢 不 
1,黄金 实时 连载 利润 不止 等 你 来 
-1,套人 模式 开启 进 一个套 一个 
-1,收盘 前 再次 割肉 鞍钢 股份 亏损 6 个点 清仓 退出 保命 要紧 这样 下去 怕 被 主力 证监 
1,震荡 进行 时 箱体 观点 没有 改变 
1,请问 12 块 三 买 走 我 股票 [ 大笑 ] [ 大笑 ] [ 大笑 ] 
1,劳资 发 要 买进 百联 股份 贴 为什么 总是 被 删除 还是 那句话 ： 买买 买 
0,中环 环保 预计 中签率 约 为 0025 
1,主动 买 跌 今天 1455 分 买入 002497 兄弟 们 我 来 
1,今天 中 签咯 股友 euefEz 不要 羡慕 哦 你 也 可以 sb 没中过 签 
-1,这 叫 什么 狗屁 审核 制欣泰 顺利 通过 欺诈 发行 上市 
-1,兆易 创新 创新 ～ 怒 踩 价值 投资者 复牌 5 天内 跌停 
-1,尾盘 哪个 畜生 低 几分 砸 你 个 畜生 养 
0,走势 很 凝重 追高换 长信 科技 不 知道 对 不 对 
1,五洋 科技 300420 ) 已 奠定 创业板 领头羊 只有 加仓 一路 持有 
0,综艺 股份 600770 ) 融资 融券 信息 12 - 02 ) 
1,期金 爆涨 明天 中金 不涨 三个 点吃翔 一斤 
1,凯发 尾市 放量 是 好 信号 明天 上涨 
1,业绩 肯定 好 明天 收盘 就 知道 
0,濮耐 股份 : 2017 年 半年度 报告 更新 后 ) 
-1,钢煤 联袂 强势 上涨 是不是 也 需要 大 数据 查一查 呢 
0,中公高科 603860 ) 龙虎榜 数据 08 - 10 ) 
1,家电 各 品类 中 洗衣机 替换 需求 最强 最先 到来 
-1,保守 估计 19 年 公司 市值 超过 500 亿杨 总 减持 几个 跌停板 都 是 人为 制造 
0,如果 联通 8 月 17 继续 停牌 你 有 什么 反应 
-1,几位 牛散 居然 跑 是 割肉 吗 损失 不小 吧 
1,昨天 我 砸 12 万股 哪个 韭菜 接 今天 又 还给 我 一半儿 [ 大笑 ] [ 大笑 ] [ 大笑 ] 
-1,苍天 大地 还 让 不让 人活 昨天 刚 把 控股 换成 锦龙 就 成 今天 这样 
1,空头 部队 还有 能量 多头 部队 不能 太大意 慢慢 玩不急 [ 微笑 ] 
0,601229 : 上海银行 关于 召开 2016 年度 股东大会 提示性 公告 
1,8 月 福安 丰收 月 
0,东海 鹏 ： 大盘 月线 两 连阳 七上八下 闪电 抱爹 危机 会 演绎 么 
-1,明天 要 开始 破 前期 低点 不 割肉 就要 割骨 
0,潍柴 重庆 英致造 车厂 是 潍柴 旗下 子公司 吗 
0,600703 : 三安 光电 2017 年 半年度 报告 摘要 
-1,下午 暴跌 下流 本性 短线 牛 什么 正在 打 自己 脸 
-1,呵呵 先 给你个 甜枣 回手 打 你 俩 嘴巴 子 
1,炒 铝 炒钢 只是 小试牛刀 而已 炒 铜 才 是 未来 半年 主 方向 宏观 经济学 我 是 顶级 专家 
1,缺口 不 补涨 势如虎 
1,煤炭 板块 更 疯狂 尚未 来临 新集 属于 上升期 初级阶段 看空及 作空 或 空仓 将 付出 沉重 代价 
0,601011 : 宝泰隆 对外 投资 公告 
1,铬铁 价格 持续 攀升 行业 盈利 有望 改善 
-1,历史 无数次 证明 毫无 理由 三个 涨停 一定 要 卖 
-1,深圳 我们 组织 下去 金证 闹 下 让 四个 该 杀 股东 出来 弄死 他们 
-1,367 已 撤 亏了 几百 等 着 砸 盘 
1,下午 收红 正式 开启 反弹 
-1,低位 尾盘 拉升 赶紧 跑 
0,青 青稞酒 值得 投资 吗 
0,交流 谈心 谈股 论金 涨跌 起落 不改 初心 
-1,他 奶奶 巨亏 78 个 亿 
-1,把 九川 出售 给 大 股东 严重 侵害 上市公司 和 广大 中小 股东 利益 请贵 公司 予以 澄清 并 说明 
-1,明天 解禁 全是 大散 [ 亏大 ] 
1,第二个 黑豹 非嘉玲杰 莫属 [ 大笑 ] 
1,长信 科技 调整 接近 尾声 外资 聚集 场内 不断 有 筹码 注入 新一波 拉升 要来 
0,先导 智能 是否 可以 成为 以后 白马股 我们 拭目以待 
0,富煌 钢构 耐心 看 完 技术 解析 
-1,先河 环保 8 月 10 日 打开 跌停 
0,荣盛 发展 : 2017 年 半年度 报告 摘要 
0,国家 集成电路 产业 投资 基金 有限公司 最新 持股 明细 
1,信捷 2018 年 必破 25 元 
1,我 靠 000157 原来 是 这么 大 牛 [ 大笑 ] [ 
1,这 段时间 PVC 大涨 空仓 悲哀 
1,主力 利用 中报 不 预告 漏洞 疯狂 打压 反观 部份 创业板 次 新 却己 上涨 中 
-1,精华 制药 南通 地区 发生 异常 不知真假 
0,从 底部 优质 股 入手 
-1,高点 已出 今天 追高 估计 得 十年 才 会 解套 
0,快报 ： 韶钢 松山 大 股东 20 亿元 私募 可 交换 债 获得 国务院 国资委 通过 
-1,持有 南卫 股份 朋友 可 要 谨慎 
-1,川润 股份 : 董事 姚刚 配偶 窗口期 买股 或 涉嫌 违规 交易 
-1,明天 绝对 尸横遍野 明天 暴跌 5 点 以上 
0,恒基 达鑫 : 关于 对 全资 子公司 增资 公告 
-1,红 周四 难阻 高位 背离 提防 高位 闪蹦是 重点 
1,中报 将 至 惠而浦 作为 业绩 确定性 较 高 家电 龙头 被 推荐 
1,中国 平安 ： 保险行业 领跑者 价值 有望 持续 高 增长 
-1,彭 杂碎 狗 p 言论 2 曾经 他 狗 眼中 超级 大牛股 翻 十倍 新疆 城建 
-1,市盈率 421 还有 比 这 低 吗 
0,应该 实行 买者 鼓励 卖者 负责 政策 
0,我来 告诉 你们 橡胶 指数 最低点 是 怎么 来 
-1,十年 摸 一溅 容家 铝 人心 
1,陈谋金 ： 811 黄金 行情 分析 金价 强势 上涨 
-1,股 吧 这么 多死托 专家 看多 危险 
-1,华微 要 跌 到 7 元 以下 立贴 为证 
1,金价 创两月 收盘 新高 
1,讨论 帖 ： 春风 动力 上市 或 有 8 到 10 个 涨停板 
1,群立 世纪 2015 年 第一 大 客户 江苏 电力 
1,看来 那个 利好 要 出来 你 筹码 拿 住 吗 
-1,5 万亿 级 货币基金 或迎 最 严新规 重点 指向 同业 存单 配置 
-1,历经 近 20 年 大 骗局 “ 苏粒佳 ” 
-1,恒瑞医药 股息 率仅 025 股票 卖不出去 有何意义 
-1,老李 到处 并购 烂 企是 什么 意思 大家 心知肚明 赚钱 呗 
1,此起彼伏 大涨 吃 肉 
0,某地 重卡 需求 情况 
1,公司 能力 强大 产品 研发 突出 
-1,海宁 死城 欺诈 发行 要 退市 节奏 
-1,所谓 “ 创新 溢价 ” 说白了 就是 溢价 排 第一 即 股价 偏离 价值 第一 
-1,黑色 板块 下午 即将 掉头 重挫 
-1,硅晶圆 严重 缺货 日系 供应商 先砍 大陆 订单 
0,603980 : 吉华 集团 关于 控股 股东 进行 股份 质押 交易 公告 
-1,为什么 每次 显示 买 千手 单 股票 都 要 跌 呢 
-1,近处 二次 探底 双底 背离 买买 买 
1,西部 矿业 王者 归来 
1,海通 证券 荀玉根 ： 伟大 时代 必有 波澜壮阔 牛市 
-1,港股 下跌 你 敢 上涨 
-1,证金 公司 也 被套 怕 什么 呢 
1,大盘 今日 收阴 或 十字星 短线 有 介入 机会 下 周初 有 反弹 
-1,新闻 说 阿三 撤离 居民 看来 要 准备 打 我们 吗 
-1,中国 股市 美股 是 你 爹 
1,“ 一带 一路 ” 全球 说 与 真视通 共同 发展 智慧 教育 
-1,GG 大悟 至明 行者 狗托 你 們 把 你 妈 笔笔 吹出来 
-1,中行 河北 违法 妨碍 监督 检查 代理人 寿新 业务 暂停 三月 
-1,每当 这 几个 忽悠 水军 骗子 玩命 诱多准 跌 新 老死 多 韭菜 一茬 一茬 深套 死套 
1,境外 媒体 ： 吉利 收购 飞行 汽车 Terrafugia 获 美国 批准 
1,明天 肯定 会大涨 今天 - 36 抄底 准备 数钱 
-1,真是 逼良为娼 
-1,还 耐心 恒心 87 抛 比 什么 都 好 就算 会涨 后面 买 不 就 得 
-1,今天 跌停 多头 夺路 而 逃 
0,海润 我 也 买 买 不 多 而已 [ 兴奋 ] 
1,主板 大 撤退 这些 资金 肯定 会 进入 新股 大家 别卖 
-1,砸 盘 狗 心里 有点 B 数 
1,宁波港 祝贺 中 金 岭南 大涨 
-1,这 股票 真 丢 新疆 石河子 人 新疆 那么 顶级 农牧业 资源 能 赔成 这 样子 
-1,你 妈 逼 巴安 要死 还是 庄 全家 死 
-1,跌 吧 反正 离 学校 开学 还有 20 天 怕 来 接着 跌 
1,坚决拥护 华泰 入主 曙光 这是 强强联合 
-1,今天 尾盘 打压 股是 恶庄 所为 恶庄 明天 将会 更 残酷 地 打压 股价 吸取 散户 带血 廉价 筹码 
-1,跌得 你 稀里哗啦 那些 13 块 以上 卖 都 赚 
-1,止损 出局 尼玛 这么 垃圾 玩意儿 
1,这么 多年 华泰 战略 方向 终于 走 前面 先死 磕 新能源 还 与 滴滴 签了 网约车 合作 
1,加仓 今天 有望 占 上半年 线 
-1,傻 比 买 呀 不是 叫嚣 上 百元 吗 
1,入手 这种 横盘 整理 不会 持续 多久 
-1,开滦 股份 看样子 下午 会 跌停 
1,这个 票真稳 关键 抗跌 放着 打 新 
-1,傻逼庄 继续 砸 你 成本 是 多少 
1,今天 稀土 价格 还是 大涨 
1,格力电器 我 坚信 40 元 以下 运行 不会 超过 5 个 交易日 
-1,安进 狗 全家 归西 [ 拜神 ] 
1,十日 线成 重要 位置 静待雄安 第二 波春 
0,今天 星期五 卖 是不是 下周 星期 4 到 帐 哦 还是 星期 6 和 天 不算 哦 
-1,一吓 很多 傻蛋 就 拋 可惜 
-1,鼓掌 方大 炭素 五日 十日 死叉 
1,网联 横空出世 网金 概念 枯木逢春 
0,趋势 为 王 各自 思考 
1,逆市 封板 藏 惊天 利好 染料 双雄 浙江 龙盛 闰土 股份 通过 最严 督察 环保 评价 逆市 涨停 
-1,华大基因 合理 5 年 估值 20 元 参考 达安 基因 套 傻 模式 开启 
-1,金融股 连续 打压 为 哪般 
-1,真好玩 散户 自己 砸 盘服 你们 捂 不住 筹码 吗 
-1,快 跑 马上 要 交付 公交车 出现 问题 公司 面临 重大 困难 
1,时不我待 军工 板块 一个 唯一 可以 再次 凝聚 人气 板块 崛起 吧 
-1,现在 不是 洗盘 而是 抵抗性 下跌 ： 
-1,亏损 最大 近 20 跳楼 
1,这么 好 趋势 坚定 看好 京蓝 
0,河钢 股份 接下来 是 出 掉 还是 继续 持有 
-1,这得 有 多 怨恨 
1,起码 是 还 处在 底部 石墨 烯 概念股 
1,新 希望 值得 买进 全仓 跟进 [ 鼓掌 ] 
1,下半年 以及 接下 里 几年 我 觉得 新能源 汽车行业 这块 都 有 希望 实现 超 预期 增长 
1,明天 中小 阳线 后天 创新 高 
1,各地 又 陆续 推出 新能源 汽车 优惠政策 政策 导向 显现 后期 发展 势不可挡 
-1,做板爷 狗 人家 都 不要 [ 大笑 ] 
-1,经 股民 委员会 评定 维持 对 888 “ 铝业 第一 垃圾股 ” 评级 
-1,机会 总是 等待 中 溜走 
1,钢铁 板块 午后 跌幅 收窄 柳钢 股份 涨近 6 
0,中国 第一家 以 低压电器 为主 业 A股 上市公司 
-1,持有 股票 唱 多 是 想 坐轿子 想 别人 来 抬 
1,航天 电子 会 成为 军民 融合 军转民 先锋 和 龙头 
-1,做股票 不能 把 资金 押 一个 股票 上 我 被 中环 害苦 
0,立讯 精密 : 关于 控股 股东 减持 股份 公告 
-1,逃命 去 吧 大盘 大 趋势 走坏 
1,起点 买点 上涨 坐标 已经 展开 [ 买入 ] [ 买入 ] [ 买入 ] [ 买入 ] [ 买入 ] 
-1,海马 汽车 都 已经 涨 福田 汽车 怎么 还 不涨 
1,中影 目前 真是 跌 无可 跌 具备 投机 及 投资 双重性 
-1,中 印 局势 紧张 会 开火 吗 这个 可 关系 到 系统性 风险 
1,大会 没 开 之前 大盘 没有 大 风险 
1,准备 685 满仓 中国 铝 快快乐乐 抢 
1,技术性 无法 影响 大 趋势 
1,狂笑 瞎子 狂笑 连续 4 年 业绩 翻倍 三年 利润 之 和 将 超 公司 市值 
1,牛市 归来 看好 券商 石化 钢铁 核电 股 
-1,成都 不 允许 绝对 不 允许 这么 牛 逼 李 本文 存在 每年 赚 78 亿 股价 5 - 6 元 相符 
-1,昨天 买入 三万 一千三百 多 今天 已经 哭 晕 厕所 好几回 
-1,乐视 终于 发工资 乐视 控股 员工 ： 是 6 月 工资 
1,威华 股份 : 关于 非 公开 发行股票 申请 获得 审核 通过 确实 是 利好 
1,华友 钴业 钴 锂 合璧 耀 全球 世界 钴 锂 巨星 诞生 
1,快点 买入 已经 跌 到底 山西 焦化 要 涨停 
-1,老子 12 本 今年 能 回本 吗 
-1,不敢 买 朝鲜 打 美国 搞 圬 全球 人命 保险 股 [ 哭 ] 
-1,今天 可能 千股 跌停板 大家 注意安全 
-1,今天 进 必将 活埋 明天 放量 暴跌 是 必然 不服 来 打 脸 
-1,我 分析 就是 下 一个 星期 嘉泽 也 很 难 打开 涨停 盘 因为 大 资金 早 已经 盯 
1,1500 亿狂 砸 医疗 王健林 到底 想干什么 
-1,都 是 几千 手 大单 出货 长城 定增 可能 是 个 笑话 
-1,惨不忍睹 都 8 毛 差价 
-1,雷军 进入 空调 业 靠天吃饭 董明珠 以后 能 靠 
1,明后天 可以 买入 二锂 
-1,看看 第一 创业 解禁 跌 多少 就 知道 杭州 银行 要 跌 多少 
1,亨通 光电 才 是 真正 量子 通信 龙头 后市 钱途 无量 
-1,涨 最少 跌 最 多 雄安 钢铁股 大家 都 卖 好 
1,贵州 茅台 重大 利 丨 好 来 袭 抓紧 这 一点 解套 方法 不 来 看看 
0,2 个 抗癌 新药 等待 批文 45 万亿 基础 建设 作 后盾 2 年 突破 100 元 
-1,64 元 是 河钢 股份 2017 年大顶 留 着 必死 
-1,买 这股 日子 过得 水深火热 [ 困顿 ] 
-1,这 垃圾 人家 军工 都 涨 
1,日出 东方 六年 来破 发价 77 收购 帅康 电气 参股 苏宁 银行 
0,目前 来看 2017 年 下半年 投资 机会 
-1,中 钢协 这次 实则 沦为 某些 势力 恶意 做空 工具 
1,去 产能 水泥 异动 最 看好 还是 稀土 好 标的 看 这里 
-1,一大早 来 一批 唱 多 杂碎 认亏 出局 
-1,新 董事长 干嘛 不 作为 
-1,100 亿 巨额 融资 100 属于 重特大 利空 
1,游戏 产业 增速 强劲 掌趣 科技 - 天润 数娱 - 必将 爆发 
-1,新疆 万源 或是 假 ST 新 亿 SH600145 ) 大 股东 ST 新 亿 SH6001 
1,特别 提醒 ： 有钱 赶紧 现在 全仓 买进 环旭 电子 601231 现价 1450 元 买进 拿 住 
-1,好不容易 涨 点 今天 要 全跌 没 吗 亲爱 经理 
0,耶鲁大学 公开课 ： 资本主义 成功 危机 和 改革 
-1,温州 帮会 把 它 压到 三十 以下 
1,价值 通绢 尖峰 超 60 亿 财富 见光 20 元股 业绩 
0,北京 文化 : 关于 董事 高级 管理人员 减持 预 披露 公告 
-1,海南 高速 即将 诠释 价值 是 怎样 跌 出来 
0,美芝 股份 : 重大 资产重组 停牌 期间 进展 公告 
0,西水股份 趋势 解析 趋势 走坏 后市 如何 把 控 ? 
1,越是 大家 觉得 煤炭 有色 钢铁 到 尾声 越是 要 坚定 持有 下去 
-1,猫 大婶 你 天天 谈论 759 已跌 得 惨不忍睹 都 看不下去 
1,大盘 大跌 中国 核电 今天 没有 大跌 已经 非常 不错 大盘 上涨 核电 大涨 
-1,沧州 大化 8 月 11 日 盘中 跌停 
1,紫光 国芯 002049IC 国产化 超级 龙头 必将 大 上涨 
1,中铝大 周期 超级 反转 王者 归来 刚刚 起步 庄狗 现在 还 妄想 着 吓唬 散 
0,方大 炭素 现在 是 该 继续 持有 呢 还是 先 卖掉 呢 
1,锌 正式 进入 涨价 周期 业绩 大涨 即 
1,PPP 煤炭 = 改善 企业 盈利 能力 
1,309 业绩 优良 股底 已 探明 将 遂 步 拉升 
1,鼓舞 省经 信委 表态 ： 政府 将 大力 助力 百灵 发展 
1,靠 京汉 都 涨停板 你 还 不 跟 
1,苏宁 云商 重大 利 丨 好 来 袭 抓紧 这 一点 最佳 点位 已出 还 犹豫 吗 
0,未来 中国 股市 价值 投资 理解 
0,脑壳 好昏 ： 多空 分歧 加剧 选边 站 对 很 重要 抉择 吧 
1,中国崛起 大盘 底部 永远 是 好 股票 买入 机会 ： 
0,清新 环境 : 2017 年 员工 持股 计划 草案 ) 
-1,这 是否 属于 操纵 股价 请 证监会 朋友 谈谈 l 
-1,难道 中国 经济 GTP 是 靠 银行 保险 拉动 吗 
1,买买 买大买 特买 美邦 服饰 白菜价 便宜货 马上 翻倍 启航 
-1,竞猜 该股 半年报 我 估计 是 亏损 不 可能 盈利 
-1,告知 ： 下午 负责 砸 盘 同志 请 注意 不要 再 吹牛 逼 
-1,很 好 下午 一个 跌停板 多头 灰飞烟灭 看 还 质疑 我 
1,中报 预增 400 这 应该 是 雄安 板块 业绩 最好 票 吧 
1,中信证券 东兴 证券 调研 凯莱 英 ; 业绩 高速 增长 毋容 置疑 
0,天保 基建 本次 搏 季报 是否 并表 
1,雄安股 逆袭 狂涨 
-1,昨天 实体 阳线 跌穿 明天 必然 下行 大跌 
-1,海高 难道 要 做 深市 股票 第二支 退市 股票 
1,最后 一次 提醒 可以 小 仓位 进 过期不候 
1,思创 医惠 又 飞涨 远望 喷火 前进 
-1,笑 看 草包 巨亏 “ 美格 智能 ” 诸位 自己 评判 
1,002285 涨 28 后 另 一 重点 锁定 
1,还好 换 中化 岩土 赚 五点 多 星期一 换回 彩虹 
1,603825 是 互联网 广告 龙头 今天 有 涨停板 潜力 
1,山推股份 旺季 销售 有望 量 价齐升 
1,建投 能源 8 月 11 日 盘中 涨幅 达 5 
1,大头儿 看到 股民 血肉模糊 你活 很 开心 吧 
-1,蠢庄 看看 银座 股份 控量 震盘 下周 派息 何看 
1,看来 我 判断 没错 大盘 这么 跌 它 红 
0,通润 装备 整体 上市 ： 大 股东 资产 注入 打造 新能源 节能 环保 新 领域 
-1,都 别拦 我 我 已经 站 中国 第二 高楼 ― 深圳 平安 金融中心 天 台上 中国 股市 
-1,啥时候 不 挑挑 这个 时候 减持 艹 
-1,如果 今晚 美股 崩盘 将 导致 全球 股灾 
-1,有病 跌 得 无缘无故 [ 兴奋 ] 
-1,大 A股 就 那幅 德行 跟 涨 不 跟 跌 
1,云铝股份 震荡 向上 是 主旋律 等待 行情 大 发展 
-1,全仓 被套 只能 望 煤轻叹 [ 失望 ] [ 失望 ] 
0,五大 行要 下跌 50 才 有 投资 价值 
-1,今天 让 大盘 玩死 
-1,军工 这么 高贵 名称 被 它 给 玷污 鸟 
1,惠而浦 近几年 发力 厨电 还是 有所 依据 
-1,乾照 光电 估计 有 什么 大 利空 要 爆出 来看 这 股价 走势 全天 不停 有 大单 砸 盘 
-1,罕见 银行 股 大跌 5 
0,以 庄家 心态 看盘 以 平和 心态 买卖 以 灵活 心态 看 时机 要 战胜 股潮 
-1,看样子 今天 跌 很 难看 链接 股 
1,我国 三代 核电 技术 CAP1400 研发 成功 
0,全国 加快 清理 长期 停业 企业 上半年 吊销 企业 456 万户 
-1,码巴子 你 特 么 有钱 理财 股价 一动不动 
0,全运会 开始 前 择机 抛出 然后 再 择机 进场 
-1,002870 可以 改名 为 绞肉机 绞 都 是 散户 肉 
1,锦富 技术 大涨 前 吸筹 内幕 
-1,四不象 属于 哪个 品种 天天 阴死 不活 
1,苏宁 消费 金融 进入 盈利 爆发 期拨备 前 利润 同比 增长 超 3000 
1,TCL 显性 利好 和 隐性 利好 
0,你 不 勇敢 没人 替 你 坚强 
1,我 打赌 这股 必回 10 元 
1,解读 网易 Q2 财报 ： 电商 增速 强劲 游戏 加速 全球化 布局 
1,天保 基建 000965 ) 收购 两家 航空公司 股权 业绩 大幅 增长 
-1,拉高 出货 落袋 为 安 天干 物燥 小心 火烛 
1,互联网 金融 春天 ： 微众 银行 业绩 暴增 
1,农业部 发起 手机 应用 培训 苏宁 助力 农民 跨入 移动 互联 时代 
1,只要 今天 冲过 15 下周 就是 小纯 天下 
0,巨人 网络 分众传媒 2 个 中 概股 午盘 怎么回事 
-1,创业 又 快 大跌 快 跑 
-1,垃圾 队 不是 炒股 料 ： 年初 赚 700 年底 亏 7 千亿 最少 
-1,发现 贾 套现 百亿 就 感觉 完 他 随时 可以 找 借口 离开 公司 
1,妖股 归来 一句 狂奔 
-1,韭菜 厚 很 还 得 割 一阵 
-1,信号 周期 股 与 商品 走势 背离 
-1,次新股 是 最 垃圾 板块 
-1,业绩 好 大盘 股票 是 不会 “ 闪崩 ” 88888 
1,吃瓜 群众 了解 到 塞力斯 子公司 管理层 也 都 是 有 深厚 行业 背景 
1,下午 涨停 满仓 买入 终于 对 一个 
1,周一 3 板 2646 元 挂单 捂股 打死 都 不要 卖 20 板内 必须 捂紧 
1,深度 布局 燃料电池 制冰 龙头 前景 广阔 
-1,这 杂种 股 从来 都 是 臭不可闻 
-1,他妈的 涨 时候 没 你 跌 时候 就 来 
-1,坑爹 模式 尾盘 来袭 小散 欲哭无泪 
1,京汉 诠释 强者 恒强 走 像 教科书 一样 
-1,军工 刚刚 启动 就 被 大盘 灭火器 
-1,光头 阴线 周一 继续 跌 
-1,害人不浅 多少 家庭 妻 离散 忍心 吗 
-1,跌停 家数 不断 增多 卖出 卖出 
1,晨鸣 将 涨 三倍 还 低估 4 年 收益 翻倍 利润 将 超 百亿 
1,811 黄金 连 收大阳 势头 高涨 1295 成 冲击 目标 
1,7 月 12 日住 建部 将 保定 确定 为 生态 修复 试点 城市 
-1,今天 买 下周一 全部 闷 杀 不 听 老子 言 吃亏 眼前 
-1,现在 知道 这破股 怎么 从 45 跌到 29 吧 
1,电动车 第一股 一新 日 股份 
1,入场 收尸 : 地产 称霸 南京 医美 雄冠 亚洲 
1,电器 行业 安装 服务 售后 都 特差 雷军 或 能 改变 局面 支持 雷军 搞 空调 
1,广宇 发展 8 月 11 日 盘中 涨幅 达 5 
0,576 加仓 不知 是 对 是 错 
-1,强烈 反对 国际期货 明年 单独 IPO 请 签名 
-1,乱花渐欲迷人眼 请 和 “ 煤飞色 舞 ” 道 再见 
0,圣达 生物 和 爱乐 达 8 月 11 日 申购 指南 附打 新 攻略 
-1,意淫 伙子 你 想 哭 就 哭 我 不 笑话 你 
-1,你 个 狗 艹 垃圾 跳水 起来 也 太 不要脸 
-1,666 卖 三十万 永别 抽 绳股 
-1,已 跑 路 实在 是 没 信心 还是 看着 比较 稳妥 
0,厦门 国贸 接下来 会 怎样 走 下周 是 该 加仓 呢 还是 丱 减仓 
-1,上海 三毛 二阴 夹 一阳 明确 继续 跌 
-1,自由落体 尾盘 跌停 
1,尾盘 涨停 最后 回 踩 机会 
0,阿里巴巴 15187 美元 1029 元 京东 4201 美元 284 元 苏宁 云商 
-1,上影线 长 下周 又 得 跌 一周 
1,中科 电气 是 只能 涨上 50 元 大牛股 
-1,散户 自已 残杀 庄家 看笑话 悲剧 
1,钛白粉 今天 又 涨价 
-1,班朴玛 搅风 搅水刚 买入 就 不见 十几 二十点 
1,正裕 工业 发来 贺电 祝福 中持 股份 天天 拉 涨停 股价 冲 过 百元 
-1,河钢 这 是 严重 野种 缺爹 
1,管不住 手 可以 炒点 南 山铝业 
1,盛 和 资源 快速 拉高 云铝股份 加油 准备 开板 拉 
-1,美国 只是 打 一个 屁 中国 就 象是 地震 
-1,不 站稳 11 块 连续 5 天是 不能 进 
1,今天 你 不 拉 证明 你 很 弱 不 值得 拥有 很多 强势股 都 拉 红 
0,业绩 暴涨 = = 股价 下跌 业绩 暴跌 = = 股价 任性 连续 涨停 
1,云天化 将要 破 8 
1,创业板 指数 涨 名家 汇 你 也 拉拉 看 哈哈 
-1,除了 中签 全军 覆末 打死 不卖 
1,杭电 还是 不错 如 没有 更好 票 我 打算 持仓 到 国庆 
0,TCL 集团 : 关于 持股 5 以上 股东 终止 减持 股份 计划 公告 
-1,完蛋 补涨 没有 反而 跌得 没 节操 东北 公司 真 垃圾 
-1,太阳 开始 下山 [ 大笑 ] 
-1,王巴蛋队 把 股民 赶尽杀绝 
1,为什么 一直 跌 没什么 负面新闻 能 进 么 
-1,本 以为 今天 行情 买 券商 要 抗跌 安全 点 哪 晓得 比 别的 股跌 还 厉害 
1,差 不了 有 南国 置业 前面 涨停 做 榜样 跌 不 下来 
-1,这么 烂 股 怎么 好意思 上市 
-1,一个月 回到 解放前 尼玛 
1,跌 就是 买入 机会 
-1,怎么 拉 主力 都 没用 [ 牛 ] 
-1,不用 炒股 都 喝酒 吧 而且 是 茅台 
0,必看 京东方 操作 时机 已 告知 散户 速看 近期 走势 要 注意 别 被套 
1,002285 涨 30 后 女同学 疯狂 这样 
1,希望 本月 黔源 发电量 有 15 亿度 黔源 加油 
-1,这帮 基金 还 不 自救 姚让 它 跌入 低谷 呀 
-1,对不起 7 连阳 周 结束 大盘 向 60 线回 踩 
-1,国企 不能 买人 死 都 不 知道 怎么 死 
-1,现在 出 下周一 你 会 后悔 
1,豫能 控股 大 股东 溢价 增发 低位 进点 
1,3640 买入 2000 股 白捡 坐等 吃 肉 
0,科大 讯 飞 : 2017 年 8 月 10 日 投资者 关系 活动 记录表 
0,小天鹅 A : 2017 年 8 月 7 日至 8 月 10 日 投资者 关系 活动 记录表 
-1,大盘 还要 下探 30 个点 该 跑的快 跑 吧 
-1,跌 时候 不买涨 时候 拼命 买 
-1,呦 喂 散户 有 这么 多 筹码 看来 仅存 机构 又 跑 散场 吧 
0,精准 信息 : 关于 董事 减持 股份 计划 预 披露 公告 
-1,账户 亏 一摊 糊涂 真 不想 看 玩 太累 
1,石墨电极 价格 又 大涨 
-1,跌破 18 块 
-1,你 MD 跌 这么 惨假 保险 股 
-1,这 只 烂 垃圾 新股 明显 有烂毒 垃圾 图谋 坑害 人 
0,应流 股份 ： 股东 CDH 公司 累计 减持 5 股份 
1,正裕 工业 发来 贺电 祝福 杭州 园林 天天 拉 涨停 股价 冲 过 百元 
1,2222 向 5G 和 军品 核心技术 深度 布局 静待 水下 防御 系统 花 开 金信 诺 300252 ) 
-1,再见 跌停 潮 估计 下周 有 瘦 
-1,涨点 小散 进 进去 就 大跌 这 叫 赌场 吗 比 赌场 还 臭 
-1,我 买 股票 买 什么 亏 什么 今天 我 买进 所以 我 觉得 还会 跌 
-1,我 就 纳闷 你 开盘 干嘛 继续 停牌 吧 丢人现眼 
-1,8 月 11 日 江西 板块 跌幅 达 3 
1,强势股 回调 就是 买点 现在 这个 价 分批 买 持有 三个 月 到 五个 月 翻倍 
-1,13 块 能 刹住 车 吗 
-1,8 月 11 日 稀土 永磁 板块 跌幅 达 6 
1,低入 银河 再进 浙商 坐等 券商 好 风光 
-1,神火 股份 至少 十个 跌停板 
-1,长漫大 股东 增持 5 - 10 又 是 慌言 股价 全部 跌回 增持 公告 前 
1,亚马逊 又 要 做 新 业务 被 曝 计划 进入 美国 票务 市场 
-1,8 月 11 日 锂电池 板块 跌幅 达 2 
-1,段 先念 就是 配合 老鼠 仓 一下子 跌 25 股灾 还 没 这么 疯狂 
1,恒为 科技 主营 网络 可视化 大 数据 加速 以及 网络安全 监控 均 有 很大 成长 空间 
-1,华大基因 跌 逾 9 午后 一度 逼近 跌停 
0,生物医药 行业 投资 分析 报告 : 上市公司 医保 谈判 品种 全 解析 
-1,光洋 股份 8 月 11 日 盘中 跌幅 达 5 
-1,加油 跌停 让 我 亏 6 个点 日 
-1,周期 股 都 见 顶 这股 短线 至少 还要 跌 30 
1,送 钱 机会 兄弟 们 有 多少 吃 多少 
-1,8 月 11 日 一带 一路 板块 跌幅 达 2 
-1,傻眼 吧 最低点 收盘 下周 暴跌 
-1,8 - 11 收评 ： 不进 就 退还 退 一大步 上证指数 一口气 杀跌 到 60 天线 
-1,喜跌怕 涨 西昌 熊 买 倒霉 
-1,韩国 首尔 综指 收盘 跌 172 
-1,随便 找个 傻 z 也 不会 把 股市 搞 成 这样 因为 傻子 不会 贪 
1,战前 下跌 腾挪 安全 空间 战斗 打响 提振 民心 大涨 
1,下周 继续 扬帆 起航 
1,电解铝 大幅 去 产能 重构 供求 自有 电厂 优势 明显 
-1,辛辛苦苦 七十年 转眼 回到 解放前 [ 好 困惑 ] 
1,我 就 不信 一分钟 成交 两百万 股是 来 找 套 
0,中超 控股 : 关于 为 控股 子公司 增加 担保 额度 公告 
0,601500 : 通用 股份 2017 年 第一次 临时 股东大会 会议 资料 
-1,我 撑不住 一个多月 持续 净 流出 
-1,这个 垃圾 天天 带头 砸 盘 烂货 
-1,这 就是 垃圾 垃圾 怎么 能涨 呢 
1,期待 下周 大跌 继续 补仓 是 金子 总会 发光 
-1,垃圾 股票 不怎么样 人品 也 差劲 远离 
1,已经 见底 跌 不 下去 下周 肯定 发张立 贴 为证 
-1,亏 7 个点 割肉 离场 愿赌服输 ～ [ 卖出 ] [ 卖出 ] [ 空仓 ] [ 空仓 ] 
0,置顶 穿透 财经 文章 唱空 迷雾 揭开 财经 媒体 背后 真正 面目 
1,雄安 又 上 中科 也 跟 
-1,这 两天 量 能 放大 价格 不 涨 多次 用 上影 拉高 出货 短期 没什么 肉 
0,碳酸锂 和 氢氧化锂 项目 为什么 不 开工 是不是 技术 上 存在 问题 
1,如果 您 已 错过 腾讯 就 不要 再 错过 科大 讯 飞 
-1,ST 博屎 股份 买 都 要 被套 
1,青龙 管业 7 月 数据 再超 预期 持续 关注 龙头 
-1,不要 碰 这 只 股票 不管 它 有 多 低 
-1,周线 下跌 缺口 确立 下跌 才 刚刚开始 下周 有 得 跌 [ 大笑 ] 
-1,这基 是 要死 感觉 补 多少 都 没用 跑 又 不 甘心 
-1,杨 今年 从 65 一路 加仓到 现在 还 号称 自己 赢利 多少 笑话 
1,明天 所有 次 新 反弹 
-1,这 吸血 股市 没法 完 
1,嘻嘻 这 下午 砸 中原 要 亏 2 个 亿 加仓 呵呵 
1,一万个 谢谢 躲过 股灾 还 赚 6 个点 
1,强烈 看好 鹏 起 科技 再来 一 波拉 升 
-1,山东 海化 8 月 11 日 盘中 跌幅 达 5 
-1,今天 全仓亏 15 个点 操 
1,行业 也 将 迎来 一个 崭新 发展 阶段 
1,游戏 板块 业绩 走高 有望 撑起 反弹 大旗 
1,《 万向 帝国 》 ： 明天 8 月 11 号 600791 涨停 二次 突破 
0,600187 : 国 中 水务 关于 出售 北京 天地人 环保 科技 有限公司 100 股权 进展 公告 
1,丁 辛醇 触底 强 反弹 “ 年度 大戏 ” 粉墨登场 
1,京汉 股份 也 快速 上攻 一度 触及 涨停 
-1,华泰 孙子 能 不能 积点 德 
1,热烈祝贺 第二个 中 石油 诞生 
0,潍柴 几个 疑问 和 几点 看法 
1,青岛 软博会 上 工业 机器人 抢眼 
-1,8 月 11 日宝硕 正式 进入 底 背离 阶段 一股 都 不 买入 据说 下 周日 凶案 会 提交 计划书 
1,永远 健康 食品 永远 朝阳产业 一一 600186 前景 光明 灿烂 
-1,本 以为 今天 行情 买 券商 要 抗跌 安全 点 哪 晓得 比 别的 股跌 还 厉害 
-1,狗庄 你 妈 死 多 买 钱 给 你 妈 买 纸 烧 
0,今晚 IPO 数量 还会 有 变化 吗 
-1,中信 国安 二十多万 散户 包括 我 自己 全 被 360 美丽 忽悠 
-1,惯性 下跌 下周一 还要 跌 6 左右 到 时 看 能 不能 站稳 
-1,下周 星期一 肯定 要 补跌 幸好 割肉 
1,平安 和 华夏 净利 微 增长 是因为 加大 提取 坏帐 准备 
0,皇马 科技 8 月 14 日 申购 指南 顶格 申购 需配 市值 20 万元 
0,各位朋友 来 预测 下新宏泰 开板 价格 我 预测 39 
1,依然 坚持 看好 稀土 22 
1,目标价 50 元 理由 1 : 新 股市 盈都 120 以上 都 正常 2 公司业绩 稳定 正 处在 上升 阶 
1,明年 再 考虑 今年 湖南 黄金 中国 石化 大众 公用 哈哈 组合 稳定 赚钱 
1,强势股 跌得 快上来 更 快 
-1,华大基因 午后 跌 逾 9 一度 逼近 跌停 
-1,所有 自封 股神 都 是 [ 大便 ] 同意 点赞 
0,走势 很 凝重 追高换 长信 科技 不 知道 对 不 对 
0,此股 有 什么 重大 消息 吗 
-1,涨停板 上 被套 估计 今年 都 无法 解套 
-1,国科微 ： 财务数据 前后 打架 上市 三天 变脸 亏损 
1,周末 还有 大 利好 被 洗出来 孩子 你们 就 不要 羡慕 啦 
1,战略 聚焦 打造 全 行业 全 能力 数字 营销 龙头 
0,巨轮 智能 : 第六届 董事会 第八次 会议 决议 公告 
-1,该 股大 股东 无德 不 讲 诚信 又 操纵 市场 等 终究会 收到 严惩 
-1,8 月 11 日 预盈 预增 板块 跌幅 达 2 
-1,刚 上市 就 这样 真 笑话 
-1,浙江 世宝 8 月 11 日 盘中 跌幅 达 5 
1,海航 创新 前景 看好 
0,行在 荆棘 中 前面 究竟 是 康庄大道 还是 条 不归路 ? 
-1,深圳 地铁 已 被套 
-1,8 月 11 日 深证 100R 板块 跌幅 达 2 
0,603993 : 洛阳 钼业 H股 公告 董事会 召开 日期 ) 
-1,长荣 长荣 看似 很 强大 看 你 能 撑 到 几时 这样 搞法 是不是 怕 爆仓 
1,振 雄风 实现 全球 业务 协同 力争 成为 全球 顶级 生产 企业 
-1,得利 斯 8 月 11 日 盘中 跌幅 达 5 
1,怪不得 今天 多头 这么 强势 因为 港股 海尔 电器 逆势 涨 
-1,8 月 11 日 石油 行业 板块 跌幅 达 2 
0,贵司 和 天弘 基金 现在 合作 关系 是 什么 性质 
1,新乡化纤 与 三家 公司 强强联合 开拓 国内 维一 光致变色 材料 
-1,评 凯莱 英 业绩 优秀 遭 非理性 下跌 
-1,鲁西 化工 8 月 11 日 打开 跌停 
-1,中 钢协 发声 降温 上市公司 提示 风险 钢铁 和 有色 股 还有 戏 吗 
1,钢价 大幅 上涨 4 元多 000709 河钢 股份 抢到 赚 
1,创业板 指 弱势 震荡 收倒 T 字线 中小 创 表现 得 较为 抗跌 
1,明天 方大 炭素 开始 第二 波 上涨 
1,中 报 速递 ： 睿 能 科技 2017 年 上半年 盈利 837036 万元 同比 增长 9872 
-1,亿纬锂 能 8 月 11 日 盘中 跌幅 达 5 
-1,晨鸣 纸业 8 月 11 日 盘中 跌幅 达 5 
1,大唐电信 上海 贝岭 紫光 国芯 三者 600198 最佳 
1,下周 看涨 明天 是 进点 5 元 左右 都 可以 进 下周 涨 
-1,舒服 舒服 全仓 套牢 定存 模式 开启 下礼拜 起 不用 每天 盯 盯 盯 
0,建行 2018 年 分红 登记日 收盘价 
-1,龙建 分红 每股 1 根 牙签 难怪 死 得 惨 
-1,格林 美 明天 将 跌破 支撑 线 002340 暴跌 不可避免 
1,应该 是 价值 洼地 也 该轮 到 吧 低买 走 起 
0,2017 年 上半年 中国 股权 投资 市场 回顾 及 展望 
-1,股市 苏维埃 别 做 狗腿子 改当 汉奸 吧 
-1,巴基斯坦 大神 快 出来 叫 涨停 最后 装一波 
1,今仁智 股份 表演 排名 浙江 板块 第 195 位 ： 不错 
-1,昨天 582 卖 今天 540 全部 割肉 妈 什么 垃圾股 
0,脑壳 好昏 ： 多空 分歧 加剧 选边 站 对 很 重要 抉择 吧 
1,氯碱 化工 半年报 预增 逾 16 倍 
-1,说 神火 股份 上涨 都 没有 看到 这一 因素 主力 还 未 出逃 
0,现在 持有 壹桥 小伙伴 们 除了 手游 我们 还 可以 关注 其他 一些 信息 
1,虽有 回 踩 今年 股市 真的 比去 稳 不少 
-1,无法 与 鞍钢 股份 相比 没有 盈利 盘 都 是 割肉 出来 
1,1 个 半月 将 翻倍 
-1,洛阳 钼业 上涨 见 顶 603993 主力 逃脱 即 
-1,人家 都 涨 50 或者 翻倍 才 狂跌 你 也 没涨 装 什么 熊 
0,看来 还是 短线 操作 为 好 等 我 南国 出来 杀 回来 
1,比较而言 还是 恒瑞医药 最优 
1,高 盛大 股东 持股 天安 中国投资有限公司 高管 简介 砸 盘 银行 股 加油 
0,君正 集团 有 天弘 基金 百分之 156 - 天弘 基金 上半年 挣 230 个 亿君正 集团 能分 多少 
-1,这破股 资金 已经 连续 两年 向 外流 出没 停 过 
1,稀土 价格上涨 第二张 牌要 出 
1,低入 银河 再进 浙商 坐等 券商 好 风光 
-1,记住 滥发 新股 早晚 有 一天 要 付出 沉重 无法挽回 代价 你们 就祚 吧 早晚 祚 到头 
1,氯碱 化工 预计 上半年 净利润 220 亿元 至 260 亿元 同比 增长 168400 至 200900 
1,这次 网联 石基 信息 才 是 最大 受益者 
-1,云铝股份 8 月 11 日 盘中 跌停 
1,600111 即将 启动 行业龙头 ： 公司 是 全球 稀土 行业龙头 企业 年 产销量 超万 
-1,安泰 集团 8 月 11 日 盘中 跌幅 达 5 
-1,儿子 已经 瘦 不行 今天 股市 别 再 跌 要 不 我们 爷俩 都 要 饿死 
-1,强势股 成砸盘 主力 下午 还要 继续 下滑 散户 注意 点 
1,白酒 龙头股 主力 底部 筑底 八月 接力 方大 炭素 又 一 黑马 
-1,不要 复牌 钢铁股 期货 已经 大跌 复牌 干嘛 
-1,特大 利空 ： 高送 转 方案 22 号 股东大会 可能 被 否决 逃命 吧 
-1,今天 貌似 要 跌 15 以上 
1,创业板 稀土 永磁 300224 下周 公布 中报 10 送 25 
1,相信 不久 就 会 有 一波 大 行情 
1,自查 公告 显示 公司 责任心 
0,222 买进 今天 294 卖掉 刚刚 265 有 又 买进 我 做 对 嘛 
-1,这一跌 就 回到 解放前 从 盈利 5000 变成 亏损 3000 
-1,万科 A : 境内 同步 披露 公告 
-1,谭灿芸 ： 原油 惨遭 50 魔爪 暗袭 瀑布 式 下跌 多单 被套 如何 逃脱 
-1,烧酒 炉 正沸买 中国 铝业 被套 今天 气得 话 都 说 不 完整 活该 
0,三环 集团 : 独立 董事 工作 制度 2017 年 8 月 ) 
0,福安 药业 : 关于 控股 股东 部分 股份 质押 公告 
0,600396 : 金山 股份 非 经常性 关联 交易 公告 
-1,黑色星期 周五 特朗普 “ 怼 ” 朝鲜 波及 A股 背后 还有 一大 原因 
-1,野村 ： 新西兰 联储 或 干预 坚持 看空 纽元 
1,昔日 有色金属 龙头 强势 回归 中 报 业绩 大增 封王 指日可待 
0,600532 : 宏达 矿业 第六届 董事会 第三十二 次 会议 决议 公告 
0,乐视 最新消息 ： 大家 快 看 
1,下周 飙升 迎接 靓丽 中 报 
1,海信 电器 形势 太好了 
0,600308 : 华泰 股份 2017 年 半年度 报告 
-1,快 跌停 吧 今天 不 跌停 明天 也 会 跌停 
1,科达 以 销售 为 导向 实现 业务 可视化 
-1,幸亏 108 割肉 感觉 今天 可能 跌停 
1,新能源 市场 会 理性 回归 
1,云铝 下午 绝对 反拉 你们 看看 这 周期 铝涨 多少 螺纹钢 沪 铜 涨 多少 
1,长江 通信 强庄 控盘 已成 必涨 形态 
-1,今天 追高 惨 周一 看 他们 比赛 割肉 过 几天 收回 我 中 签 那 几股 
0,财经 天下事 ： 雄安 强势 个股 分化 本周 市场 将 如何 
0,吴生 ： 别忘了 股权 质押 之 风险 
1,300 元华 大 坚信 不会 变 信不信 慢慢 看 
0,关于 比亚迪 股价 理性分析 
1,据 消息灵通 人士 透露 中国 化工集团 有意 接手 湖北 宜化 目前 双方 正在 洽谈 
-1,散户 还 往里 冲 非得 抱 着 一起 死 有 闲钱 买点 石化 
-1,铝业 垃圾 精品 888 入者 苦不堪言 要 买者 小心 
0,荣昌 育种 : 2017 年 第四次 临时 股东大会 通知 公告 
0,总 市值 ： 酒鬼 89 亿 水井 174 亿 沱牌 112 亿 伊力特 98 亿 今世 缘 193 亿 
0,ST 欧迅 : 关于 补发 公告 声明 公告 2017811 ) 
0,荣昌 育种 : 关联 担保 公告 2 ) 
0,上半年 冰火 两重天 下半年 该 何去何从 
1,强势 涨停 机构 游资 敢死队 疯狂 抢 筹雄安 概念 暴涨 五 
0,漳州 发展 : 独立 董事 对 公司 有关 事项 独立 意见 
0,飞鱼 星 : 第二届 董事会 第四次 会议 决议 公告 
0,大盘 还要 跌 几天 观望 吧 别急 着 买 这股 虽然 今天 强势 抗跌 但 最好 观察 几天 
-1,好 良言 难 劝 该死 鬼 海航 内幕 屡屡 被删 
1,京蓝能 科 订单 目前 达 10 亿 
0,10 公司 试点 信托 八项 分类 试点 期 新旧 分类 “ 双轨 
-1,尾盘 1400 手 也 是 拼 老命 怕 周末 特大 利空 哈哈哈 
1,京汉 是 第一个 获得 雄安 地皮 开发 公司 今晚 出 公告 下 周三 连板 
1,今天 大盘 翻红 可能性 比较 大 
-1,该股 至少 还有 25 左右 跌幅 
-1,咋 不 崩盘 跌 这么 狠 还 跌 
1,凭借 “ 苏粒佳 ” 江苏 吴 中将 一 展 十倍 大牛股 雄风 
1,下周一 大盘 低开 高 走 概率 大 
0,中信 海直 : 关于 重大 资产重组 停牌 进展 公告 
0,老康 说 一 是 回购 第二 是 派息 那 我们 就 听其言 观其行 吧 
1,12 家 银行 排队 掀 “ 上市 潮 ” 渴求 补充 资本 募资额 或 达 数百亿 
0,两市 低开 关注 绩优 中小 创 
1,国之 重器 航天 电子 
1,星期六 出 消息 铁路 票 涨价 今天 主力 压盘 分红 星期一 涨停 冲 
-1,最 垃圾 医药 股 呵呵 
-1,减持 和 解禁 是 最大 利空 还有 得 跌 下周 
-1,万科 广州 楼盘 准 业主 月 供 过 万 却 无法 收楼 物业费 照收 
-1,次新股 指数 年内 大跌 37 
1,中西部 中小 机场 项目 密集 获批 小 机场 造价 低 贡献 大 
1,腾讯 大 数据 回规 A股 科达 股份 数字 营销 龙头 
1,收购 重组 有序 进行 坐等 数钱 
1,死 多头 大 反扑 豪赌 油价 将 升至 100 美元 
1,狗日 天天 跌 每天 走势 和 大盘股 一样 几分 钱 
1,300 点 中级 行情 启动 6009 驰宏 锌 锗 也 要 跟风 涨 一点 
0,液氧 价格 是否 持续 大涨 这 对 公司 业绩 影响 大 吗 
-1,无时无刻 不 彰显 垃圾 本色 [ 大笑 ] 
0,华斯 股份 : 关于 控股 股东 部分 股权 质押 暨 部分 股权 解除 质押 公告 
1,写 钢铁 板块 大跌 之 时 继续 强推 ST 华菱 
-1,静水 狗托 叫 多 这票 肯定 跌 大家 切记 
1,中 天城 投 1 至 8 月 销售 1429 亿 直逼 去年 全年 销售总额 
0,国投 近期走势 浅析 供 大家 探讨 
-1,金 钼 估值 实在 太低 
1,四季度 业绩 环比 15 
1,白云山 乙肝疫苗 一旦 成功 市值 要 翻 几倍 
1,预测 大族 3 季度 业绩 环比 增长 60 
1,天业 算是 不错 股 今天 跌 这个 样只 下 这么 点 好样 
1,强烈 看好 鹏 起 科技 再来 一 波拉 升 
-1,运盛 欺骗 投资者 这 就是 证据 
1,国内 市场 未来 前景 看好 
1,大盘 跌 这么 多鹏 起 还 算 好 
0,如何 避免 金融危机 再次发生 
-1,严厉 要求 把 假药 停 全家 抓 起来 严防 出逃 
0,写 开盘 前 拒绝 马后炮 
1,8 月 11 日 或许 本世纪 妖股 已经 产生 那 就是 嘉泽 
1,说好 大跌 又 没来 全是 忽悠 急死人 
1,下午 各位 判官 看戏 啦 山西 证券 就是 大哥 
1,长阳 大逆转 明天 千股 涨停 
1,证 金汇 金再 出手 33 股 插 上 “ 隐形 翅膀 ” 只 等 半年报 
1,王传福 ： 只要 中国 1 沙漠 和 戈壁 能 覆盖 上 太阳能 板 比亚迪 也 将 转型 成为 能源 巨头 
-1,机构 很 无耻 关键时刻 落井下石 畜生 
0,雅达 股份 : 关于 拟 出售 土地 使用权 公告 
-1,买 两个 银行 股 平安 与 招商 日 不让 人活 
-1,说 鱼 尾巴 不要 吃 吃 被 噎着 吧 [ 微笑 ] [ 微笑 ] 
0,为什么 时隔 3 个 月 又 提出 雄安 概念股 
1,老枝 发夏芽 ； 铁树 开冬 花 ： 横批 ： 仁智 股份 
1,老乡 快点 买入 已经 跌 到底 山西 焦化 要 涨停 
-1,尾盘 下跌 各路人马 都 逃 星期一 必 暴跌 
-1,增山 粤 就是 个 骗子 大家 小心 
1,应该 说 医疗 不错 但是 貌似 中水会 更强 
0,旅游业 机遇 与 挑战 并存 
1,银河 生物 高举 “ 生物医药 ” 旗号 股价 2 年 涨近 10 倍 
0,腾邦 国际 : 关于 部分 募集 资金 投资 项目 实施 地点 变更 公告 
-1,细数 5 夷 几大 利空 新进 散户 要 套个 半年 
-1,业绩 大变脸 亏损 [ 鼓掌 ] [ 鼓掌 ] [ 鼓掌 ] 
0,腾邦 国际 : 关于 部分 募集 资金 投资 项目 实施 地点 变更 公告 
-1,本来 想 再 赚 一笔 又 套住 [ 哭 ] 
-1,特 麻麻 85 左右 卖 云 铝 买 这 东西 真是 吐血 
1,钢铁 消费 旺季 即将 到来 
-1,时间 到 开始 做空 同志 们 撤 
1,从雄安 新区 规划 内容 新理念 布局 概念股 
0,海润 检测 : 高管 变动 公告 
0,洛阳 钼业 下周 趋势 怎样 适合 补仓 么 
1,幸福 蓝海 8 月 11 日 盘中 涨幅 达 5 
0,16 花样 03118803 ) 大宗 交易 数据 一览 08 - 11 ) 
1,踏空 要 建仓 发财 快 来华 映 历史 低位 洗盘 
0,ST 建峰 : 关于 公司股票 暂停 上市 期间 工作进展 情况 公告 
1,领先 锂电池 物流 自动化 系统 集成商 
1,食品饮料 行业动态 点评 ： 啤酒 集中度 加剧 龙头 有望 触底 回升 
1,603825 是 互联网 广告 龙头 今天 有 涨停板 潜力 
0,601669 : 中国 电建 2017 年 1 月 至 7 月 新 签合同 情况 公告 
0,夜 光明 : 2017 年 半年度 报告 
-1,昨天 中 报 一出 那么 多 看好 怎么 就 跌停 呢 
1,苏宁 银行 加 汽车 超市 将 再造 一个 苏宁 云商 年底 三十 见 
1,既然 股权 收购 已 获得 上交所 认可 后续 发展 还是 值得 期待 
1,大 股东 全面 支持 雄安 新区 
1,曙光 一直 是 一步一个脚印 发展 起来 华泰 也 是 所以 上交所 才 认可 他们 
1,云轨 中国 新能源 轨道交通 万亿 蓝海 7 - 29 
0,比亚迪 : 关于 变更 非 公开 发行 持续 督导 保荐 代表人 公告 
1,中国 电建 前 七月 签约 同比 增 三成 
1,底部 国资 改革 强庄股 调整 尾声 有望 快速 拉离 成本 区 持有 
1,现在 正是 家电行业 旺季 看好 海信 
-1,投资 比亚迪 就是 浪费时间 外面 世界 很 精彩 
1,重仓 融资 满满 等待 江铜 一飞冲天 
-1,8 月 9 号 那天 钢铁股 齐涨 原来 是 中 钢协 鸿门宴 
1,云轨 推广 初期 应该 先以 年 卡 月 卡 方式 一是 回收 资金 二是 推广 力度 大 
1,蔚来 ES8 即将 量产 以 特斯拉 为 对手 续航 350 - 400 公里 全系 前后 都 搭载 感应 
1,量子 通信卫星 提前完成 试验 任务 
0,财信 发展 : 召开 2017 年 第三次 临时 股东大会 通知 
-1,天天 死人 这 垃圾 狗 庄 和 控股 股东 操盘手 为何 不死 
0,汇绿 5 : 关于 重大 事项 暂停 转让 进展 公告 
1,国家队 压盘 不让 涨太决 我 还是 看好 雄安 
0,国金 证券 ： 雄安 主题 下半年 催化剂 以及 投资 主线 
1,赶紧 买大 智慧 是 下 一个 华锐 一年 绝对 上 最高 历史 价 然后 靠 解禁 股 打压 干掉 
1,海润 光伏 荣获 2017 年度 中国 分布式 能源 杰出 创新奖 
-1,广州 名片 越秀 金控 被 白痴 搞烂 
1,粤泰己 经跌 无可 跌 今日 非常 抗跌 下午 强力 拉升 宣告 二次 探底 成功 
-1,白银 有色 8 月 11 日 盘中 跌幅 达 5 
1,一直 都 看好 海信 坐等 海信 涨 上去 
1,晶方 科技 半年报 增长 103 
1,60 以上 就 意味着 未来 几年 还 将 有 大量 钢企 实现 强强联合 
-1,1618 成本 何时 解套 郁闷 
0,MSCI 拟将 六股 纳入 指数 有 
1,下周 开启 连板 模式 锂电 雄安 概念 小盘 超低价 
1,还 等 死 吗 全面 做空 国际 铝 机会 就 你 面前 
0,科德 智能 : 第一届 监事会 第四次 会议 决议 公告 
0,三合 盛 : 关于 涉及 重大 诉讼 公告 
0,方心 健康 : 董事 变动 公告 
1,感觉 上涨 空间 已经 打开 
-1,一块 用红 布包 着 石头 谎言 最终 会 被 揭穿 
-1,老娘 跟 你 有 仇 一 回来 就 暴跌 
0,依兰 点金 ： 关于 黄金 解套 那些 体会 
0,威创 股份 : 关于 签订 战略 合作 协议 暨 关联 交易 公告 
-1,中孚 信息 就是 猪肉 荣做 个 股票 现在 跌成 什么样 
1,首批 上市 银行 半年报 登场 银行 上半年 并 无 “ 缩表 ” 迹象 
1,液氧 供不应求 价格 暴涨 3 倍 
-1,昨天 骂人 sb 哭 吧 哈哈 后面 还要 暴跌 
0,股 道教 你 盘中 如何 做 T0 操作 
-1,近东 苏宁 有 脸 说 自己 世界 500 强 企业 市值 才 千亿 股价 疲弱 幸好 12 元 都 出 
1,真的 找 不到 跌 理由 长期 持有 买入 
1,惠而浦 今日 强势 跌幅 较 小 
1,一年 内 40 元 不是 梦 [ 大笑 ] 
1,养家 最近 迷上 雄安 新区 青龙 启迪 建投蒙草 值得 关注 
1,东方 锆业 ： 再次 上调 部分 产品价格 
-1,华大基因 8 月 11 日 盘中 跌停 
1,赚钱 效应 大王 中孚 信息 
1,跟 我 谈 龙头 中孚 信息 
-1,给 机会 不 走 明天 继续 
1,该股 近来 有 涨停 架势 
-1,那些 排卖单 都 是 SB 
-1,一天 玩 一分 水平 
0,大家 如何 看 ? 可以 买 吗 
0,今天 不过 9 我 就 出 
-1,太 垃圾 半死不活 
1,尾盘 冲击 涨停 快抢 筹 
-1,明天 肯定 跌 大势所趋 
0,8 元 以下 开启 调整 窗口 
1,別 冲动 等 明天 再涨 
1,资金 持续 流入 一个 字 
1,劳资 跑步 入场 抢 筹北稀 
-1,早上 亏 三个 点刚 卖 
-1,星期五 1038 接盘 
-1,预增 50100 
1,脚踏 浮云 上天 揽 月 
0,000554 泰山 石油 
1,没 上车 赶紧 上车 吧 
-1,继续 跌 我 等 着 补仓 呢 
1,最后 机会 赶紧 上车 
-1,跳水 比赛 世界 第一 
0,今天 出去 也 够 多 
0,中国 铝业 ： 操作 需知 
-1,今天 不 走会 后悔 一个月 
-1,远离 国改 珍惜 资金 
-1,恶意 砸 盘 鉴定 完毕 
-1,残 被 A股 带坏 
0,上午 好 各位朋友 
-1,跟 联通 一个 德性 忽悠 
0,几分 钱 玩 一天 6666 
-1,放量 下跌 主力 出货 
1,这 一会 交易 活跃 呀 
-1,宝泰隆 还 拿 着 有 吗 
-1,今天 追 估计 明天 得 埋 
-1,垃圾 主力 把 我 洗 没 
-1,预测 收盘价 全部打 脸 
1,强者 恒强 不离 不弃 
-1,从未见过 如此 厚颜无耻 
0,今天 1118 收盘 
0,美联储 加息 会 增大 人民 
1,此股 下周 将会 有所不同 
-1,那里 跑 拿 命来 
0,到 月底 才 开始 怕 个 球 
1,挑战 60 前期 高点 
0,持身 贵严 处世 贵谦 
-1,老是 用 这 手法 坑 散户 
1,还 没 到底 明天 等待 
1,今天 买 明天 就 可以 赚钱 
-1,破位 下行 快到 87 
-1,最后 一 坑底 背离 大底 
1,反指 出现 就 一条 路 做 多 
1,600067 补升 强烈 
0,600067 冠城 大通 
1,业绩 一流 冠城 大通 公司 
-1,焦炭 马上会 有 跌停 出现 
1,可以 做 多 买买 买 
1,底部 红三兵 刚刚 启动 
-1,跑 吧 还 来得及 
-1,每次 横盘 都 是 跳水 前奏 
1,底部 红三兵 刚刚 启动 
-1,打压 吸筹 主力 歹毒 
1,今年 叫 你 低价 定向 增发 
0,338448 求中 
-1,建议 停牌 说出 问题 
-1,说不定 狼 真的 来 
-1,难道 是 八月份 亏损 吗 
0,最 多 价值 五元 钱 
-1,被 你 宝泰 爸爸 秒杀 
-1,出去 7 亿都 不 跌停 吗 
-1,再 不出 真 都 跌 出翔 来 
0,多空大 斗法 站 哪边 呢 
1,下半年 猪价 季节性 回升 
-1,外盘 黄金 现货 貌似 见 顶 
0,350 元 左右 接 回 
0,杀猪 榜 显示 国庄 出货 
-1,走 你们 玩 不要 跌停 
0,券商 给出 目标价 ２ １ 元 
0,高处不胜 寒 唯有 浮云 困 
-1,喜欢 戴绿帽子 多 戴 一些 
-1,这 垃圾 玩意 没救 别 买 
-1,这个 走法 明天 低开 是 定 
1,涨到 4 块 03 我 就 满仓 
-1,上 引线 有 一点点 我 就 不 买 
-1,操 尾盘 跳水 庄 不要 演了 
1,暂时 蹲 地 是 为了 跳得 更 高 
0,最好 军委 来个 什么 奖状 ? 
1,云铝 翻红 中铝 今天 还债 
-1,这 两天 陆续 清仓 湘 油泵 
1,恭喜 第一 创业 大涨 2 分钱 
1,今天 胆大 一回 明天 见 
0,现在 是否是 诱多 
1,今天 翻红 明天 高开高 走 
0,如 题 好像 这是 一种 必然 
-1,中 铝 庄 不是 一般 恶毒 
1,守住 整数 关口 要 
-1,天天 跌跌 到 什么 时候 
0,跑 剩下 给 你们 赚 吧 
0,神奇 均线 此 得到 验证 
-1,上当 明天 赶快 割肉 
1,炼石 有色 不错 明天 我来 
0,中国 铝业 会 不会 被套 
-1,恒指 下午 必 暴跌 500 点 
-1,香港 交易所 骗子 全是 骗子 
1,坐等 145 开 两成 仓 
0,AH 近距离 接触 才 对头 
-1,神奇 股 让 我 又 受伤 
0,只有 证金出 才能 止跌 
0,明确 告诉 你们 诱多 出货 
1,今天 做 行业 板块 “ 龙头 ” 
0,还 不 拉升 等到 什么 时候 
1,上涨 趋势 明天 继续 大涨 
-1,这里 托太多 此股 必跌 
0,厦门 国贸 买入 会 被套 吗 
-1,涨 不了 马上 跌下来 
0,看看 收盘 前 五分钟 怎么 走 
-1,坏心 人 请 不要 来 跟帖 
-1,做空 狗 要 卖 赶紧 卖 
0,我 650 元 等 着 接盘 
1,中信 国安 从此 喜事 连连 
-1,傻狗 咋 不 卖 啦 尼玛 
-1,无 语 目的 是 为了 证金 卖出 
-1,要 减少 发帖 不然 会 挨骂 
1,一两根 阳线 就 能 破 新高 
0,继续 看 3331 缺口 附近 
-1,套 死 你们 这些 归孙 哈哈 
1,最后 几分钟 全部 卖出 
-1,草停 半天 一分 没涨 
-1,这 以后 还 相信 混 改股 
-1,老美 又 要 开始 頻烦 繁议息 
0,中国联通 可以 买入 吗 
0,交流 卖点 务必 联系 136 
1,马上 93 快点 买 起来 
-1,上证指数 果然 暴跌 
0,华夏 南洋 其实 和 新 都 一样 
0,焦炭 本周 会 出现 跌停 吗 
1,关注 二 三线 白酒 股 补涨 
1,股民 贵金属 一手 懂 进 
-1,下午 焦炭 必 跌破 2200 
0,is106 去 二组 找颖颖 
0,is 语音 106 二组 小小 
0,我 是 没有 那么 多 精力 
1,这 铁矿石 也 被 带 起来 
0,没 看 出来 哪里 有 问题 
-1,问题 很 严重后果 很 悲惨 
-1,股市 有 风险 入市 需谨慎 
-1,明天 开盘 快逃 股灾 又 来 
-1,状告 公司 管理 欺诈 股民 
-1,心里 慌有 个 群 就 好 
-1,现在 买进 都 是 英雄 
-1,指数 创新 高 资产 创新 低 
-1,它 才 不管 你 小 股东 利益 
-1,今天 完 彻底 完 哦 
-1,今天 是 下跌 热身 快 跑 吧 
-1,真是 脸 都 没 地方 摆 ～ ～ 
1,恭喜 大疆 恭喜 保 千里 
1,准备 干 3400 节奏 
-1,感觉 9 月 5 日 是 变盘 时间 
0,挺住 小散 不要 被 割 韭菜 
-1,好烦 明天 涨停 我 还是 亏 
0,还 呢 还有 一起 吗 
0,看 评论 找 { 杨 } 就 明白 
1,弄不清 小心 使得 万年 船 
-1,昨天 刚入 今天 就 这么 砸 盘 
-1,这个 走法 明天 低开 是 定 
-1,乐视 嘿嘿 五元 都 不要 投 
1,抛弃 一切 换股 吃 进京 东方 
1,还是 你 不错 今天 追 好 
1,三 连续 3 - 5 天 中 阳线 
1,稀土 电池 稀土 铼 : - ) 
0,乐视 复牌 可 参考 融创 走势 
1,木工 吗 今天 量 太好了 
1,这 股 一日游 涨停 就 出货 
-1,今天 买入 估计 要 挨套 
-1,狂洗 一通 看来 要 拿 两周 
0,中国 铝业 短线 高点 看 多少 
1,今天 又 3802 补 些 
-1,明天 继续 跌 跳空 低开 
-1,艹 你 先人 割肉 再 不 玩 
0,看看 9 月 4 日 港资 买 多少 
0,中国 神华 大哥 们 该 出手 
0,都 出去 吧 我 当 股东 也 不错 
-1,查 他 罚 他 限制 他 账户 
-1,1235 被套 10 万股 
-1,买 高位 长期 山顶 站岗 
-1,看 跑得快 呵呵 哈哈哈 
0,今天 资源 股 调整 介入 时机 
-1,操控 盘面 主力 机构 太 可恶 
0,棋逢对手 胜利 才 更 光荣 
1,神华 混改 也 大 获 成功 
1,昨天 可以 低吸 只是 个人见解 
1,厦门 国贸 满仓 中 加油 
1,今日 收个 十字星 听日 强攻 
1,都 等 着 抄底 呢 望眼欲穿 
-1,天天 是 天价 太高 
0,大北农 老板 增持 什么 意思 
-1,拉高 出货 而已 千万别 进 
1,明日 高开 一骑 绝尘而去 
0,中国联通 短线 高点 看 多少 
-1,市值 蒸发 30 亿 主力 会 玩 
0,9 月 20 日 全部 投 否决票 
-1,还 不如 不 重组 害死 人 
1,斗转星移 世界 霸主 换位 
-1,今天 陷井 真深 无言 
-1,艹 你 奶奶 跌破 纸尿裤 
-1,国企改革 本来 就是 一场 骗局 
1,黄金 多头 全体 上 刺刀 杀 
0,8 个 钉子户 全看 新 都 定位 
-1,认清 狗 托期 海沉服 
1,2300 不破 哈哈哈哈 
0,实时 更新 建议 仅供参考 
-1,按照 常识 不 应该 这么 贵 
0,这个 吧 怎么 没有 粉丝 
1,空方 发慌 一刹那 涨停 
1,明天 继续 跌停 后天 涨 5 ％ 
-1,低头 看天 抬头 一脸 懵 逼 
-1,毒 蟑螂 张中 秦 就是 脑壳 好昏 
-1,你们 没 尽力 明天 继续 搅局 
-1,做 T 十 o 今天 挣一毛 
0,经典 连续 诱 多派 筹 走势 
1,明天 感觉 要 搞 事情 大涨 
-1,坑人 呀 故事 讲 进去 要 逃跑 
-1,买 高价 票 脑子 基因 坏 
0,事实上 事实上 事实上 事实上 
-1,这个 大盘股 就 快 一地 鸡毛 
-1,真是 晕死 麻痹 没 支撑 
-1,老子 46 成本 当炮灰 
-1,全军 撤退 祝接 我 筹码 发财 
0,愚人 人 认为 至少 看到 45 吧 
0,H股 涨 2 点 你们 认为 呢 ? 
1,进军 号 吹响 你 听见 吗 
0,上 档 第一 压力 位 3250 点 
0,寻找 钉子户 斧头 王女 保安 
1,虽然 高 点 但是 还是 要 翻番 
-1,北方 习吐 什么 时候 能 吐 干净 
1,经过 多天 观察 今天 收盘 红 
1,第一 创业 稳住 等待 机会 进入 
1,快 开牌 快 赚钱 给 老子 买肉 吃 
0,昨天 2 个 亿 上午 35 亿 
1,北方 稀土 稳住 等待 机会 进入 
-1,香港 cnm 市场 专门 坑人 
0,9 月 4 号 港资 大举 买入 格力 
0,有 的话 也 要 做 差价 不能 死 拿 
-1,格力 现在 已经 成 瘟鸡 
-1,小单 拉大 单跑 都 投 反对票 吧 
-1,受 打击 心 有点 动摇 
0,笨 将军 小号 你们 猜猜 是 
-1,这种 上蹿下跳 格局 必跌 无疑 
-1,诱多 出货 哈哈哈哈 好 明显 
-1,都 拉高 出货 还 怎么 搞 
0,美国 一 女子 买 彩票 中 51 亿 
0,主力 哥 加把劲 收个阳 十字 吧 
0,厦门 国贸 今天 收盘 1152 
0,下来 吧 我 为 你 接盘 加油 吧 
0,猜 9 月 6 日 早上 高开 还是 低 走 
1,那些 唱 大跌 人 打 脸 吧 
-1,宝泰隆 散户 们 做好 对策 吗 
-1,混改 就 混 改成 这个 逼样 
-1,垃圾股 年 年 有数 联通 最 垃圾 
-1,涨跌 自如 难道 控盘 
-1,能 卖 都 卖 吧 行情 结束 
-1,国电电力 难道 你 就 这么 害 散户 
-1,特大 事件 美元 突然 大幅 拉升 
-1,有九元 上方 朋友 吗 冷 不 
-1,JB 国企 完全 就是 骗子 公司 
1,我 郑重宣布 黄金 大牛市 来临 
0,占 世界 货币 结算 量 百分之 95 
0,还是 谈谈 美 格拉斯 指数 走势 吧 
1,大 - - - 国 - - - 牛 - - - 市 
-1,加空加 空加空 搞 爆多庄 
-1,多头 获利 离场 空头 加码 进场 
1,皮 海洲 美股 牛气 冲天 令人羡慕 
-1,继续 假摔 空头 不 哭 站 起来 撸 
0,创出 板 持股 没什么 好 说 
0,IS 语音 106 找 二组 橘白 
-1,纹龙 ： 单子 套 进来 说说看 
1,还是 刚牛 坚挺 厉害 钢 
0,600684 珠江 实业 广州 
1,厉害 三季度 就是 你 
-1,不 停牌 屁事 没有 公司 有病 
0,知道 这个 股票 什么 时候 开 
-1,卖 你 就 涨 shabi 主力 
-1,下 半周 割 韭菜 不 跑 套 十年 
-1,一跌 就 跑 明天 融资 少 2 个 亿 
1,还 继续 持股 大同 煤业 入 
1,心 要 向着 美好 明天 去 憧憬 
1,向 新华网 记者 和 编辑 致敬 
1,3475 之前 不要 在乎 记住 
-1,如题 不 采取行动 后果 会 严重 
0,设计 上 礼物 五卖 剩 100 股 
0,国电电力 ： 这 周 如何 操作 类 
-1,官司 进展 公告 是 时候 发了 
-1,傻 逼 股上 串 吓 跳 没点 卵用 不能 碰 
-1,大 资金 断断续续 没有 早上 果决 
1,两点 半 发射 跟 紧 别错过 
1,北方 稀土 提价 大家 看到 没有 
0,明天 才 是 庄家 出货 小散 最后 出 
-1,盛 和 资源 有种 不带 北稀 玩 赶脚 
-1,27760 多 止损 带 20 个点 
1,呵呵 今天 派发 效果 很 好 哦 
1,赶紧 出 请问 现在 还 能 出 吗 
1,市值 不 突破 一万亿 我 不 走 
-1,收集 筹码 筹码 还 不够 不会 拉升 
1,挂 两个 点 竟然 成交 有点 可惜 
1,比比 露天 煤业 复牌 两重天 
-1,我 一看 就是 套人 所以 没有 买 
1,跌破 88 我 再 接 一下 做个 T 
-1,狗庄 昨天 涨 今天 又 跌 回去 
1,赣锋 锂业 将 冲击 百元 大关 就是 
-1,又 套 一批 明天 给 你 颜色 看 
0,没 大胆 t 几毛 多 千来 股 
-1,被 洗 明天 将 涨 得 怀疑 人生 
-1,资金 都 去 拉 次新股 明天 跌停 
-1,有 本事 你 就 去 补 747 怕 
-1,就 问下 9 块 04 分买 爽 不爽 
-1,FUCKFUCKFUCK 
-1,央企 重组 就 这样 坑 散户 吗 
-1,大家 全部 清仓 明天 还要 大跌 
-1,大家 快卖 最后 时间 出逃 
-1,看来 美元 这波保 88 够呛 
-1,庄家 不计成本 就是 一个 字 ： 逃 
-1,两天 把 憋 3 个 月 能量 吃 完 
1,本人 将 所有 知识 无偿 献给 你们 
1,低头 看 世界 永远 不 做 大多数 人 
0,徜徉 阴阳 线 间 运筹 沽 渣 涨跌 
-1,新 都 来 路上 会 被劫 停 吗 象 博元 
1,私募 跟 财政部 做 对 肯定 赢 加油 
0,去 is106 频道 找 二组 颖颖 吧 
-1,明天 跌停 买入 100 股 纪念 一下 
1,明天 开割 9 月 28 日 小牛 开始 
-1,这 周 上证指数 有望 收 惊天 长阴 
-1,吓死人 顶不住 虐 五毒 
-1,宝泰隆 都 翻 你 还 跟 王八 一样 
0,今日 讲解 抓住机遇 散户 速进 
1,成功 套 一批 上上下下 太 容易 
0,904 行业动态 监控 “ 煤炭 ” 
1,坚决 保卫 优秀 民族 炭素 企业 
0,方大 碳素 这个 趋势 跑 不 跑 
-1,同情 一天 亏损 10 个点 散户 
1,神华 涨 607 ％ 你 这 垃圾 
-1,唱 多 狗 死 哪 去 赶紧 来 护板 
0,买 进来 反正 就是 赌博 不是 涨 就是 跌 
1,柳钢 好 股 挑战 老大 邵钢够 妖 
0,还是 明天 看 情况 再 决定 是否 买入 
1,汇金 股份 9 月 4 日 盘中 涨幅 达 5 
-1,跌幅 太 大 造就 没有 人买 
-1,没有 量 拉升 就是 扯淡 走 人 
0,越往 上 压力 位越 大 不过 也 正常 
1,韶钢 松山 不要 慌张 反弹 即 
1,你 妈 太 垃圾 还好 o 重仓 云铝 
-1,大陆 都 是 要钱 不要命 玩命 赌徒 
-1,1481 元割 亏了 80 万 
1,乡亲们 原来如此 这下 厉害 
-1,才 刚刚开始 很多 人 以为 是 山顶 
-1,踏空 SB 明天 更 多 拼命 唱空 
1,走 吧 一直 出货 外面 都 捡钱 
-1,龙头 格力 要 调整 我 差点 上当 
0,至于 东财 怎么 走 你 应该 知道 
0,上午 吸血 模式 达到 目的 下午 猛冲 
1,量价 配合 完美 等待 针状 焦 投产 
-1,真想 说 脏话 愿赌服输 躺 着装 死 
-1,广西南宁 人 这个 狗 拉圾 害人不浅 
0,把 K 线 缩小 看看 还有 多少 套牢 盘 
0,收盘 来看 不服 来辩 骂人 滚蛋 
0,人脸识别 人工智能 ： 中国 税务 
0,为什么 还有 那么 多人 看好 中国 联堵 
1,我 相信 今天 应该 没有 割 地板 上 
1,联通 昨天下午 终于 拉了一把 把 把 
0,9 月 看点 英 央行 是否 暗示 加息 
0,中国联通 现在 买入 会 不会 被套 
0,我 建议 怎样 大家 都 长点 志气 
1,低头 看 世界 永远 不 做 大多数 人 
-1,二 BPT 元老 死绝 全家 哈哈 
0,各位 家人 朋友 大家 周二 早上好 
1,600067 五个 涨停 迎接 十九 大 
-1,有人 垃圾 当 黄金 炒 002230 
1,世纪 星源 与 德国 合作 目前 12 元 
-1,尼玛 笔 我 帖子 为什么 不让 发 
0,策略 更新 中 建议 仅供参考 
-1,神 锌 继续 假摔 空头 不 哭 站 起来 撸 
-1,美股 最近 要 下车 感觉 要 跌 一波 
-1,应该 逃离 跌倒 11 月 能 止住 不错 
-1,靠 突然 事件 托起 反弹 都 是 短命 
-1,恭喜 恭喜 恭喜 你 呀 恭喜 恭喜 跌死 你 
0,002074 有 买入 跟 我 留言 
1,姐 吃掉 压价 36 万手 即时 消空 
-1,前两天 割肉 今天 又 进来 
-1,起诉 超 华科技 股民 j 举手 
1,本周 内 大盘 必 重新 打回 3300 点 
-1,主力 死 吗 这样 股 上市 害人 n 
-1,33 以上 越套 越 多 不妙 闪 人 
0,要是 我 说 假 我俩 对质 随便 你 骂 
1,白洋淀 第一期 项目 工程 势在必得 
-1,强烈 建意 管理者 全面 调查 汇丰银行 
1,三聚 环保 A股 第一 成长 股 
-1,控个 王炸 还 没 赢 看 你们 打 
0,现在 走势 看不透 该 怎么办 
-1,短期 回避 没 机会 只 说 这么 多 
-1,融捷 回本 盈利 跑 进 塔牌 集团 
0,27 元 走 祝 剩下 朋友 们 好运 吧 
1,开盘 走 很 满意 大大 超出 预期 
-1,尾盘 散户 狂 砸 新进 主力 都 无语 
0,方大 证券 买入 1 个 亿 明天 有戏 看 
1,明天 铁定 高开 就 看 能 不能 高 走 
-1,主力 资金 能 持久 点 么 射 一下 萎 一下 
0,价格 91 - 98 之间 我 猜 
1,爱 囯 热情 太高 都 是 旧 消息 别 激动 
0,第二 龙头 600259 广晟 有色 才 有 
0,88 元 买 5000 股会 被套 吗 
-1,这桩 没云 铝 好人家 翻红 给 跑 机会 
-1,为 骗 小散 筹码 黑狗 使劲 唱衰 格力 
-1,所谓 高科技 悲剧 全民 忽悠 而已 
0,请问 黑猫 吗 黑猫 常 炒 中 铝 
0,北方 稀土 現在 買 入會 不會 被套 
-1,都 来 做 空 杂种 恒指 目标 做空 3 万点 
-1,恒指 能涨 我 把头 割下来 垃圾 恒指 
1,不管 什么 时候 都 要 买 这个 牛股 龙头 ～ 
-1,尾盘 暴跌 明天 再来 个 低开 全部 套牢 
-1,原来 这里 遍地 是 散户 看看 帖子 看 
-1,自然 涨 都 比 这个 高 什么 改革 
1,30 块 以下 格力 才 有 价值 投资 价值 
1,我 猜 今天 净流入 1 - - 15 亿左右 
1,奶奶 老子 留 到 明年 拿 分红 
-1,必须 减仓 耗不起 留 一半 玩玩 
-1,阿萎 今天 你 港务 果然 是 龙头 
-1,金砖 期间 股票 肯定 不会 涨 等 明天 吧 
-1,这 是 玩 什么 五档 排 5000 手 
-1,看来 该股 庄家 需要 吃 鹿茸 才能 雄起 
-1,请 该 股 主力 向 002460 学着点 
0,尾盘 买入 八干 万 呀 这 骗 不了 人 
-1,大盘股 就是 这个 德行 没 资金 进来 
-1,明天 继续 跌 吧 老娘 拿 钱 等 着 砸 进去 
0,中国 神华 ： 还 能 拿 吗 要 不要 出掉 
1,成本 5472500 手 满仓 中 
1,给 全部 散户 定心丸 吃 明天 必大涨 
1,真是 不 容易 五天 可算 看到 红 
0,流出 两个 亿 大洋 筒子 们 怎么 看 
-1,跑 跑 吓 得 没有 心脏病 都 出来 
1,科大 讯 飞 明天 超 7 成 概率 是 上 引线 
0,一骑 红尘 妃子笑 无人 知是 荔枝 来 
-1,垃圾 联通 股 价值 4 元 左右 继续 跌 
1,就 这 几天 要 回 补缺 口 就 差 几毛钱 
-1,看看 宝泰隆 你 真 垃圾 中国联通 
-1,妈 左算 右算千算 万算 还是 被套 
0,中国联通 ： 还 能 拿 吗 要 不要 出掉 
1,该是 抄底 机会 劳资 来 拉 你 一把 
0,不信 就 等 我们 建国 一百周年 看看 汇率 
0,黄金 现价 单美盘 实时 给出 耐心 等待 
1,至少 会 拉上去 做 双头 看到 2550 
0,603226 小盘 军工 锂电池 
1,创业板 短线 逢 高袋 错 不了 如图 1 
0,中国 还 追求 几吨 货物 自由 流动 
-1,这 股 一点 业绩 没有 还有 这么 多人 买 
-1,此股 已经 没有 希望 改名 超生 为 好 
-1,一失足成千古恨 再回首 已 百年 身 
0,跌停 怎么 出货 来 教教 技巧 
1,量子 通讯 基因 医药 等 开始 布局 
1,多谢 各位 大佬 达成 共识 时间 还有 
-1,这时候 还有 人想 进去 接 飞刀 脑残 么 
1,方大 炭素 大家 拭目以待 吧 等待 反弹 
0,大家 来 猜猜 主力 成本 是 多少 
1,喜中 一千 股 就 当 国庆 福利 呵呵 
1,赚钱 换 老婆 是 每 一个 好 男人 责任 
-1,下午 暴跌 不要 问 我 是 我 是 雷锋 
-1,今天 主力 资金 流出 不少 什么 情况 
1,虽然 品相 很 不 好看 可是 贵在 天然 
1,已 全面 杀 回方大 炭素 静候 新高 之旅 
1,庄家 隐秘 筹资 泄露 最佳 买卖 机会 
0,沒有 多 大 利好 只是 供 煤价 稳定 点 
1,散户 跑 路 机构 进驻 后面 还会涨 吧 
1,业绩 无忧 价格低 次新股 看好 你 
0,中国 出版 可以 追高 买入 吗 开板 呀 
0,大家 猜猜 725 涨停 得 多 大 成交量 
1,稀土 价格 爆涨 稀土 股价 也 应当 爆涨 
0,韶钢 松山 接下来 会 怎样 走 能否 持有 
0,2014 年 研报 现在 拿来 当 新闻 
-1,砸 盘 你 卖 带 着 钱 到 地下 过节 吧 
-1,600111 盘子 太 大 众多 资金 心 不齐 
0,北方 稀土 现在 是 该 继续 持有 还是 先 卖掉 
-1,本周 或 有 大 阴 给 你 这样 才 会 吓 到 你 
0,建议 改为 ： 联合 航空航天 制造 股份公司 
-1,18 亿玩 一天 能涨 1 分钱 就 不错 
-1,走 不 坚持 再见 我 心爱 东财 
-1,昨天 还 15 今天 又 14 哦 撑不住 
-1,控制 148 左右 出货 庄 太狠 
-1,恒指 25680 附近 空 止损 30 个点 
1,长期 留着 你 你 能 不能 给 我 带来 惊喜 
0,我 已经 福瑞 股份 建仓 300049 
1,形态 难看 但 913 买入 万一 呢 
1,明天 只有 一条 路 就是 向上 冲冲 冲 
1,明天 集合竞价 统统 买入 一毛 不留 
-1,就是 要 讲 动听 故事 这样 才能 骗钱 
-1,这是 哄人 下车 有 多少 下车 同志 
-1,国电电力 378 本来 庒 你 就 坑人 吧 
-1,天天 阴跌 不要 跳楼 等待 反弹 
0,汉王 调整 洗盘 结束 明后天 再 二个 板 
1,483 团 我 团 终极 红色 捍卫 
0,被 市场 伤害 人 磨练 你们 心智 
0,600812 兼雄安 概念 和 地震 后 概念 
0,建议 : 投资者 可 申购 开放式 股票 基金 
1,600306 排名 第一 妖王 现身 牛起 
-1,诈骗 手续费 48800 特大 骗子 公司 
-1,伟哥 变成 萎哥 看 你 服不服 小鸭 鸭 
1,雷曼 股份 博 超跌 反弹 短线 机会 
-1,至少 34 个 跌停 完蛋 怎么 维权 
-1,完 收盘 封单 347474 去 死去 死 
-1,什么 情况 就是 被 调查 也 不该 跌停 
-1,大佬 们 发话 今天 全力 做 空鹏欣 资源 
-1,最后 一笔 44 手 你们 就是 个 4 命 
-1,明天 暴跌 哪里 来 哪里 回去 服气 没 
-1,九月 是 杭 萧钢构 调整 月 跌 一个月 
-1,大家 看看 这 是 个 什么 情况 小散 全跑 
-1,哪 天 百强 不 这 发帖 我 也 不 关注 乐视 
1,买进 凯莱 英都会 赚 不少 可惜 没钱 
1,韶钢 松山 重磅 来袭 ) - - 不 容错过 
0,韶钢 松山 还会 继续 拉升 起来 吗 该 出 
1,炼石 目前 是 起飞 爬升 阶段 我 看好 它 
0,第一 创业 ： 明天 还 能 拿 吗 要 不要 出掉 
-1,股价 高高在上 乐视 复牌 最少 三个 跌停 
0,投资 460 亿元 每股 投资 131 元 
1,净利 增 48 什么 概念 格力 万岁 
-1,格力 怎么 变成 这样 半死不活 样子 呢 
0,北方 稀土 ： 明天 还 能 拿 吗 要 不要 出掉 
-1,国内 鸡狗 赶紧 抛 完 混蛋 请 不要 再 回来 
1,知道 一定 数量 吐出来 看来 还是 可 教育 
-1,tnnd 老子 匀出 一部分 钱 买 其他 股 
1,听说 骑牛要 走 国贸 微微 一硬 以表 敬意 
-1,今天 又 是 低开 大家 抛 吧 低开 没 好事 
-1,快 来 接盘 新鲜 韭菜 买一送一 
-1,拉 尾盘 没 好事 明天 跳空 低开 低 走 概率 大 
1,以为 止跌 但是 大盘 又 要 深幅 调整 
1,多跌点 等 我 中国 中期 卖 就 把 你 买回来 
1,我 又 回来 起飞 吧 讯 飞 一飞冲天 
-1,明天 即使 大涨 也 会 走 很 艰难 相信 我 
0,用 本金 买 一千 股 华丽 家族 爱 咋 昨 
0,恭喜 股指 再创新高 恭喜 联通 再 创新 低 
0,汉王 科技 寒锐 钴 业金田路 今天 大 出货 
-1,上午 把 我 洗出去 348 抛 哭 晕 
-1,文明 贴 混账 东西 改不了 狗吃屎 就 叫 混改 
-1,还 差 三分 钱 补缺 补 跌停 看 获利 
0,每天 这么 多 流出 买 都 是 散户 吗 
1,别人 生活 里 跑龙套 不如 精彩 做 自己 
-1,今天 第二 波诱 多 不 知道 套 多少 人 哈哈 
-1,二十一 世纪 大 萧条 正式 来临 做 多 黄金 
0,是 漫长 等待 还是 快速 转板 
-1,下 月 见证 美元 走强 大宗 商品 暴跌 时刻 
1,黄金 现价 13428 进多 目标 1346 
-1,PT 好象 人间蒸发 彻底 不敢 露面 
-1,多头 主力 使出 多种 下三滥 手段 急于 出逃 
0,看多 多 就 做空 看空 多 就 做 多 
1,艹 盈利 来 有点 猛不太 适应 
-1,环保 已经 不 允许 一刀切 看 你 怎么 炒作 
1,美国股市 就是 牛 就是 头部 形态 也 气派 
1,高开 就 空单 然后 第二天 获利 了结 很 轻松 
-1,黑色 系 高位 高频 起伏 是 明显 见 顶 信号 
-1,哪位 大神 问问 董秘 到底 啥 信息 披露 违规 
-1,让 欺诈 人 违法 要 抓 出让 股民 面对面 处理 
1,保 千里 股价 有望 三年 之内 超过 科大 讯 飞 
-1,随时 有 可能 闪蹦别 执迷不悟 小 散们 
1,坚决 增发 散户 创群 统一战线 打败 空头 
-1,今天 出来 算你狠 还 没完 等 着 接 你 
0,国电电力 ： 明天 还 能 拿 吗 要 不要 出掉 
0,锌业 股份 还会 继续 拉升 起来 吗 该 出 
-1,尾盘 撤单 没 撤掉 明天 死定了 真 后悔 
-1,我 427 元加 仓 等 他 下来 他 下不来 
0,主力 气魄 雄伟 随便 砸 吧 今天 砍 到 流氓 
-1,大庄 做市 气盖 山河 小庄 再见 你 不配 
1,坚定 看好 炼石 王者 归 “ 铼 ” 非你莫属 
1,现在 776 买入 底 仓 2238 手 不变 
-1,看看 赣锋 锂业 华友 钴业 你 这来 不 硬气 
-1,拉稀 吗 涨 没有 盛 和 多 跌 都 没 比 他 多 
-1,庄 雇佣 空狗来 黑 格力 发 一帖 给 五毛 哈哈 
0,盛 和 资源 600392 资源 龙头 再次 发 为 
1,炼石 有色 《 三大 信号 暗示 大盘 突破 即 》 
1,洗盘 马上 落幕 想 做 上 末班车 请 赶紧 上车 
0,央行 出手 打击 虚拟 货币 今日 拭目以待 
0,呼叫 多空兄 和 鼠弟 我 想 回来 现价 可以 不 
0,1472 就是 今天 低点 不是 我 直播 吃翔 
1,东方 财富 这波 反弹 一定 冲上来 拭目以待 吧 
1,事实证明 一切 中国 中车 中国 神华 
-1,别的 煤炭 概念 都 涨 你 跌 让 哥情 何以堪 
1,明天 上午 将会 出现 技术 盘 蜂蛹 杀出 现象 
-1,今天 晚上 又 有人 会 把 资管 事件 再 翻出来 说 
1,开始 抢 筹码 咯 马上飞 起来 就 来 不了 买入 咯 
0,低头 是 生命线 抬头 是 新高 庄家 选择 
1,主力 己 高度 控盘 明天 将 继续 上攻 再创新高 
0,我 帖子 为什么 尾盘 两个 点 也 能 成交 
-1,今天 放量 滞涨 明天 套 一批 能出 都 出 吧 
-1,主力 说 ： 上午 再 洗洗 下午 2 点 以后 办事 
0,现在 能 买入 呢 还有 能 涨回去 么 新手 不 懂 
-1,别 拿 你 几毛钱 笑脸 去 蹭 那分 不 完 蛋糕 
1,股改 送 2 股 可以 接受 只是 重组 方未 公布 
0,你 准备 好了吗 最佳 对策 ： 空仓 观望 
-1,散户 九月 要 打起 十二分 精神 随时 撤退 
0,信 共济会 为 共济会 服务 得保 财产 永生 
-1,为什么 自选股 里 一买 就 跌 不 买 他 就 猛涨 呢 
0,五百家 微涨 七百 家 下跌 指数 红 为 毛 
-1,先 让 你 失望 然后 让 你 后悔 大涨 下 半周 
-1,至 贱亡 强人 见人践 贱气 逼人 见 无极限 
1,最 多 还有 12 个 交易日 整理 爆发 即 
1,逆势 股 与 中小板 指数 比较 一下 异类 控盘 
-1,此股 全是 散户 主力 放弃 没有 人会来 抬轿 
1,恭喜 保 千里 手机 预约 已 接近 16 万部 
0,成事在天 谋事在人 持方大 炭素 伙计 来 
-1,国电电力 外围 资金 进仓 快进来 看看 泪奔 
-1,看来 只要 几把 央企 国企 重组 准 尼玛 比 坑人 
-1,四元 上方 买入 兄弟 们 你们 还好 吗 哈哈 
-1,宝泰 隆重 大 内幕 太 让 我 震惊 快 跑 为 妙 
-1,按 次新股 手法 此股 明天 跌停 是 板上钉钉 
-1,[ 香明 实战 口诀 ] 052 暗渡陈仓 需 提防 
-1,这个 价位 敢 卖 给 你 就 只会 以 更 低 价位 买回来 
-1,这个 老老 逼 股 不能 碰 减仓 太 厉害 跑 耙 
-1,今日 大单 砸 中 铝 就是 为了 期铝 空单 套现 
-1,开始 发力 人工智能 锂电池 都 后继 乏力 
-1,紫金 矿业 今日 主力 出现 异动 做好 对策 吗 
1,万绿丛中 一点红 说 得 就是 北方 稀土 你 信 吗 
1,不显山不露水 有涨 有 跌 而 趋势 是 向上 即可 
1,现价 84 元 左右 可以 闭上眼睛 买进 或者 加仓 
-1,中国 铝业 钉子户 不要 古巴 吵 再 吵 打 屎 你 
-1,唱 多 又 出来 小心 明天 低开 低 走 
1,净利 增 48 想想 什么 概念 格力 万岁 
-1,它哥 美的 都 绿 它 肯定 会 跟 跌涨 未必 会 跟 
1,9 月份 继续 向 10 元 小 目标 发起 攻击 哦 
1,可以 说 小 利润 博大 利润 单子 可以 进来 看看 
0,国承瑞泰 : 第二届 董事会 第十次 会议 决议 公告 
1,不想 下车 还 犹豫 今天 尾盘 可以 买 
1,祝贺 格力 取得 超好 成绩 调整 估值 到 50 元 
1,大家 不要 忘 神华 是 指杆 股 不 可能 一味 跌 
1,煤炭 股 什么 时候 调整 到位 中国 神华 是 標杆 
-1,这么 多 利好 连 大盘 都 没 跟上 傻 逼 傻 逼 傻 逼 
1,ADC 发泡剂 一周 从 13 万涨 到 205 万 
-1,认赔 出局 庄家 厉害 温水 煮 青蛙 
-1,联通 混改 就是 圈钱 股友们 你们 认为 呢 
1,600629 华建 集团 国内 建筑设计 领军 企业 
-1,中国联通 你 是 前世 没爹 还是 咋 地 怎么 天天 跌 
-1,国电电力 今日 主力 出现 异动 做好 对策 吗 
-1,高点 第三天 低点 第五天 怎么 选择 向下 
-1,国电电力 老总 跑 路 复牌 到 现在 一直 跑 
-1,353 抄 底 有种 你 再 跌 主要 是 便宜 
-1,原油 现价 4755 直接 空 止损 04 
-1,晚上 开始 加仓 空单 永安 就 这点 水平 哈哈 
1,空头 注意 啦 焦炭 假摔 来 明天 分 分钟 翻红 
-1,三板 宝 1 狗屁 预测 欣泰准 准准 
-1,原油 现价 4755 直接 空 止损 04 
-1,最近 山西 看到 一个 焦化厂 焦炭 上 都 长草 
0,炒 政治 炒 概念 最终 还是 要 回到 本来 价值 
0,建议 : 今日 又 可以 开始 申购 开放式 股票 基金 
0,我 周四 抛 一手 美股 果然 就 被 我 打 下来 
0,华伍 股份 : 关于 航空 发动机 零部件 小 批量生产 
0,美股 昨天 为什么 没 交易 是 美国 节假日 吗 
-1,好久没 见 跌停 晚上 来 一个多头 散户 别跑 
-1,红盘 买 一买 就是 死 总是 冲高 回落 死 股 
-1,完 跌停 没 打开 估计 明天 盘面 也 不 好看 
0,关注 盘小 绩优 价廉 002109 兴华 股份 
0,TO 交易 呼吁 恢复 TO 交易 波段 操作 
1,300018 中元 股份 人工智能 龙头 即将 拉升 
-1,再 不 跑 又 要 套 人 朝 核中美 贸易战 中秋 国庆 
0,龙头 涨 多 歇 一下 亿萎 涨 几毛 也 要 调整 
-1,一个 做 饼干 股价 这么 高 你们 还敢 买 活该 被 埋 
-1,不管怎样 今天 没 顶住 真心 恭喜 走 朋友 们 
1,上午 119 买 买 以后 心是 虚 没想到 
1,公司 赚钱 股价 肯定 一路 上涨 目标 位 15 元 
-1,参考 神华 趋势 明日 大 跌落 袋为 安才 是 真 道理 
1,板块 内 个股 之间 进行 龙头 轮动 才能 走得 长久 
1,国务院 力推 大 健康 产业 发展 社会 办医 前景 看好 
1,现在 加仓 等到 50 一起 发财 咱们 拭目以待 
-1,黑狗 继续 黑 格力 格力 也 是 估值 50 元 哈哈哈 
-1,今天 来 黑 格力 有 三种 人 五毛 骗筹 眼红 
0,求 一个 群让 我 进去 了解 一下 当前 走势 如何 把握 
0,国承瑞泰 : 第二届 董事会 第十二次 会议 决议 公告 
-1,真是 日 狗 猪力 连 砸 五天 还 没 吃饱 
-1,这个 位置 上方 积累 3 个 月 套牢 盘 来 拉 
-1,剩下 不是 盲目 看多 就是 长期 看好 懒得动 
1,东方 财富 洗盘 结束 明天 进入 快速 拉升 阶段 
1,天津 板块 接力 雄 安全 面 爆发 低位 低价 小盘 抢进 
0,这样 就 对 吗 我 卖 你 还 涨 也 太 对不住 我 
-1,昨天 害 我 追 涨停板 今天 割肉 哎太背 
-1,今天 割肉 认栽 明天 继续 低开 低 走 套 人 M 头 
1,不 涨价 就 等 十月 三季度 预报 研报 绝对 有 惊喜 
-1,9 月 20 日 全部 投 否决票 让 这 为 日 退市 算了 
0,中国联通 接下来 会 怎样 走 继续 拿 着 还是 抛出 
-1,利用 利空 洗盘 减持 一定 伴随 着 拉升 此处 无银 
0,周一 黄金高 开图 分析 就 不 做 直接 问题 分析 
0,雄安 新区 建设 央企 6 家 地方 3 家 外地 3 家 
-1,黑色 系 泡泡 即将 悄悄地 不可 阻挡 破 掉 
1,半年报 利空 出尽 很多 个股 是 可以 大举 建仓 
1,明天 再 跌 就 可以 买入 抢 一个 反弹 赚点 快 钱 
0,请 核对 明天 打 单价 是否 3485 谢谢 回复 
1,买入 6000 股 哈哈 谢 主力 压价 给 机会 
1,乐视云 计算 乐视 金融 乐视 影业 一次 注入 乐 视网 
-1,相较 安钠 达恶 炒 烂 股 中科 信息 必 破产倒闭 
1,682 给 你们 打气 所以 不要 怕 你们 
-1,今天 追高 被套 成交价 399 元求 大神 指点 
1,次新股 中国 宠物食品 股份 必 狂飙 无数 亿 涨停 盘 
1,看到 中科 信息 创业 黑马 我 这 签 只 赚 15 万 
1,大家 坐稳 要 上去 主力 持续 流入 飞 起来 吧 
1,中国 股市 能 有点 创新 吗 煤 和 铁 就是 市场 热点 
0,最近 只 买 三只 股票 京东方 中兴 神州数码 
-1,咋会 买 就 跌下来 又 是 一个套 放 几年 看 
0,第一 创业 现在 我 是 继续 补仓 ； 还是 减仓 持有 
-1,此股 没 机构 都 是 散户 看 报道 瞎 追 明天 割肉 卖票 
-1,这货 总要 看盛 和 资源 脸色 盛和快 拉 
-1,深交所 发文 告诫 投资者 不要 迷信 涨停板 晚间 财 
1,格力 利润 增长 48 估值 50 元 估值 50 元 
1,格力 上半年 净利 增 48 赶紧 上车 兄弟 们 
1,赶紧 上车 兄弟 们 格力 上半年 净利 增 48 
1,完美 收盘 有 多少 人 被 洗 下个 上升 通 到 打开 
1,? 格力电器 半年报 增长 近 五成 太棒了 买买 买 
1,3803 没有 抢 到 明天 变盘 往上拉 升 趋势 
1,密切 关注 东方 财富 创业板 龙头 马上 王者 归来 
-1,出 几个 亿 尾盘 拉 一下 诱多 明天 再 低 开狗庄 
-1,要 走 不 送开 新仓 继续 弄 让 主力 把 我 弄死 吧 
-1,请求 新鲜 韭菜 赶紧 进来 接盘 主力 要 开始 出货 
-1,看 这个 架势 明天 神华 还要 调整 希望 你 适可而止 
-1,中国 神华 明天 是 拿 着 还是 抛该 如何 更好 操作 ? 
1,有 多少 人 跟 我 一样 看多 今明 必上 12 有 几个 
0,现在 股市 穷富 差距 太大 有 股价 涨 上天 有 
-1,方正科技 高校 概念 板块 股价 倒数 第一 与 倒数第 
-1,382 买入 估计 要套 好几年 这 坑人 货 
0,有 知道 吗 知道 请 说 出来 看看 都 是 那 几个 字 
0,我会 每天 写下 盘面 信息 希望 各位 能 和 我 一起 论盘 
0,黑色 系 各 品种 寻找 平衡点 找到 之后 才 会 出 方向 
-1,黑色 系 率先 见 顶 环保 限制 供给 同时 抑制 需求 
1,强势 涨停 机构 游资 敢死队 疯狂 抢筹 暴涨 飙升 超级 大 
0,地 伴随 着 供给 侧 改革 深入 地方 国企 混合 所有制 
-1,美国 黑四黑 五 开启 暴跌 走势 是 必然 涨多 必跌 
1,常熟 银行 601128 银行 牌照 稀缺性 业绩 
-1,中国 只 做 表面文章 发达国家 才 是 做 核心 自由 
1,忠告 大 老板 如 一口气 吃掉 36 万手 马上 涨停 
0,从 索罗斯 和 巴菲特 星盘 看 你 是否 具有 股神 特质 
-1,有没有 像 我 409 追入 去 晕 被套 10 个点 
-1,乐 视网 不知 能 害死 多少 人 这 是 真正 “ 炒 ” 股 
-1,套套 套 中国 出版 我 已 重仓 怎么 把 控求 分享 
-1,这是 攻不动 节奏 有 10 个 亿 也 拉 不了 涨停 
1,老子 跟 你们 说 年底 20 几块 你们 老老 是 跑 怕死 
-1,35 万委卖 要拉红 是 一下下 事 就 看 主力 有 多 坑 
1,看 我 你 就 知道 为什么 京东方 必胜 中国 必胜 
1,这股 有 做 多 力量 但是 现在 来看 调整 暂时 占 上风 
0,科硕 科技 : 2016 年 第二次 临时 股东 大会决议 公告 
1,不管 黑狗 怎么 黑 格力 估值 50 估值 50 哈哈 
1,赶紧 上车 明日 涨停 格力 上半年 净利 增 48 
1,格力电器 上半年 净利 增 48 净利 增 48 
1,格力 上半年 净利 增 48 赶紧 上车 赶紧 上车 
-1,今天 追进去 不会 痛苦 一辈子 但会 痛苦 好 一阵子 
1,A股 市场 唯一 一个 好股 600067 目标 15 元 
1,压单 为什么 这么 多 呀 没有 主力 动手 吗 金融 航母 呀 
-1,头部 已快 跑 小心 套牢 望 大家 仔细 考虑 好自为之 
-1,预测 9 月 567 三天 最高价 不会 超过 12 元 
-1,没有 那么 大 涨幅 盘子 大 机构 多 意见 不 统一 
-1,套套 套 中国 神华 我 已 重仓 怎么 把 控求 分享 
0,震荡 不可避免 新高 必然 有 高 换手 注意 量 能 变化 
-1,老子 割肉 两天 亏 3 万草 你 跌 不会 尾盘 急速 拉升 吧 
1,半岛 核危机 周边 态势 紧张 000519 军工 ok 
0,大家 说 说 300118 这 6 个 日 K 线 我 熨 好不好 
0,今日 黄金高 开 必定 回调 补缺 今日 黄金 以低 多 为主 
0,推动 2019 年 货币 基金会 份额 改革 什么 概念 
-1,美元 上 不 去 150 特朗普 下台 都 没 台阶 不 信 走着瞧 
-1,石油 与 美元 肯定 马上 脱钩 一一 一一 一一 一一 一一 一 
1,焦炭 回调 以后 可以 加 多 长期 看多 现在 做好 多空 都 不 做 
1,中国 中冶 上半年 新 签合同 额增 22 至 2980 亿元 
1,业绩 优秀 “ 创篮 筹 ” 股将 大幅 上涨 ： 恒宝 股份 00 
-1,其实 银行 股 经过 前期 一轮 上涨 股价 已经 不 便宜 
1,加紧 申购 开放式 股票 基金 分享 资本 市场 对外 开发 红利 
-1,刚 打电话 问 董秘 董秘 称 也 不 清楚 调查 哪一块 
1,空方 只有 36 万手 打压 筹码 横扫 吸筹 一飞冲天 
0,快报 ： 对于 “ 水皮 ” 观点 大家 就 当 他 放 一个 屁 
-1,机构 及 融资 客都 跑 路 接下来 难道 行情 不 乐观 吗 
0,汇丰 幕后 最大 股东 JPMorganChase 
-1,大盘股 如果 要 拉 也 得 洗 半个 月 明天 涨停 概率 很小 
-1,今天 368 进 国电 明天 不管 跌好 涨 好 都 走 人 
1,环保 充电 桩 锂 电子 新能源 新区 概念 回落 看好 此 
1,据 三 季报 业绩 预告 股价 可 炒 到 15 元 也 是 合理 定价 
-1,是不是 该 走 咨询 一下 高手 不 知道 该 怎么办 
1,恭喜 今天 进 明天 一字 地板 看看 昨天 开板 3 个票 
0,我草 13 出 119 买回来 会 死 吗 我 好 怕 
1,建议 大家 去 买 安泰 集团 这 几天 涨势 不错 后续 还要 发力 
-1,什么 时候 复牌 钱 全 里面 别的 也 买 不了 真急 人 
-1,下午 急剧 下跌 出来 恭喜 被套 请 做好 深套 准备 
0,天子 这卖 不卖 呢 有没有 什么 看法 没有 请教 一下 
1,拿 好 手中 筹码 别 被 黑狗 忽悠 骗走 格力 估值 50 元 
1,格力电器 ： 上半年 净利 增 48 证金新 晋前 十大 股东 
-1,砸 砸 砸 空头 太弱 连 十日 线 都 砸 不 下去 浪费 表情 
1,做空 恒指 是 十年 一遇 大好时机 逢 高 做 空下 月 发财 
1,调整 结束 这一波 直接 奔 45 而 去 让 你们 怀疑 人生 
-1,上午 大盘 个股 涨 但 成交量 没 放大 风险 仍然 
1,兄弟 们 这 五个 交易日 换手率 好 高 是不是 主力 出货 完 
-1,快 跑 诱多 出货 不拉红 都 是 诱多 出货 好好 学着点 
-1,不服 不行 真 不要 好 还有 昨天 那个 大宗 喝 多 吧 
-1,今买 至 4 成本 63 今晚 美股 会 跌 1 左右 明做 T 
1,明天 联通 上涨 5 以上 立贴 为证 830 以上 收盘 
-1,螺纹 跌 时候 你 拼命 涨 螺纹 涨 时候 你 就 跌 套路 深 
1,每股 年 收益 1 元多雄安 一带 一路 中国 制造 2015 军工 
-1,超 华科技 你定 日本 设备 干 啥 丁 德国 就 不查 你 
-1,这些 狗日 游资 昨天 涨停板 买 进去 就 跌停板 逃跑 
-1,三胖 玩 蛋蛋 韩梅 大棒 抡 ； 棒 落三胖 喊 他妈的 真疼 
0,当代 大学生 要 努力 将 书本知识 和 实际行动 密切联系 起来 
-1,汇丰银行 诚信 何在 以后 还有 企业 敢 和 汇丰 合作 吗 
-1,诱多 成功 明天 开始 暴跌 一路 下滑 到 25 元 左右 企稳 
-1,是 呀 你们 小散 现在 应该 要 挺 孙抵 贾 指望 贾是 泡汤 
-1,今天 已经 出 将近 3 个 亿 赶紧 跑 吧 不 大跌 就 万兴 
1,国庆 概念 爱国 教育 第一 龙头股 000802 北京 文化 
-1,股权 转让 价格 都 是 3529 为啥 现在 跌 到 这种 程度 
1,韶钢 松山 业绩 大涨 现在 是 场外 资金 找 标的 一定 会大涨 
1,美国 人民 贺电 : 祝贺 格力 利润 增长 48 估值 50 元 
1,河北 人民 贺电 : 祝贺 格力 利润 增长 48 估值 50 元 
1,格力 上半年 净利 增 48 逆天 增长 冲击 50 元 
1,国庆 概念 爱国 教育 第一 龙头股 000802 北京 文化 
1,抢筹 600707 　 彩虹 股份 今日 公布 定增 溢价 价格 
1,9 月 4 日 在岸 离岸 人民币 盘中 双双 突破 654 关口 
-1,有点 亚马逊 影子 我 怎么 看 是 鬼 影像 是 恶梦 序幕 
0,今天 如果 来 一个 跌停板 就 好 一次性 调整 到位 嘿嘿嘿 
0,942 出 小气鬼 江粉 112 加买 宝泰隆 
-1,国电电力 ； 此股 走势 有 转变 加仓 还是 抛仓 警慎 操作 
0,国电电力 当前 重仓 不 知道 接下来 是 出 掉 还是 继续 持有 
1,最好 最快 市值 回升 阶段 来临 决不可 轻率地 抛 逃 溜 
1,永安 干死你 加到 7 成仓 一路 加空 焦炭 到 1500 
-1,物极必反 九月份 将会 见到 2000 历史 大 顶 小心 
-1,这家 基金 真是 混蛋 简单 事情 故意 搞 复杂 买 他 倒霉 
1,人工智能 人脸识别 龙头 汉王 科技 002362 汉王 科技 
1,今日 起 纳入 自选股 重点 观察 58 附近 择机 逢 低 介入 
1,今天 买 002825 明天 不 赚 5 个点 以上 我 跳楼 
-1,这票 炒 做 太 高 他 只值 15 元 左右 A股 奇葩 就 这里 
1,姑娘 们 准备 好 开干 明天 3379 之下 塔顶 线 
-1,主力 出 10 个 亿 实力 是 强 一般 小盘子 早 都 跌停 
-1,我 比股 赔 一万 四 计划 明天 割肉 走掉 大家 觉得 对 吗 
0,国电电力 接下来 要 怎么 操作 是 继续 持有 还是 先 卖掉 呢 
-1,又 要 开跌 还是 歇歇 吧 耗 一堆 垃圾 里 也 没意思 一 
1,此股 换手 百分之六十 以上 并且 突破 13 元 全仓 买 人 
1,600455 博通 股份 大家 注意 规避 风险 不要 追高 
1,000717 连涨 不 出奇 但 2 个 一字涨 或许 明天 送给 
1,发现 和 提炼 金属 铼 对 国家 和 国防 意义 重大 宝藏 级 股票 
1,北方 稀土 官网 9 月份 挂牌价 已 发布 所有 稀土 价格 暴涨 
1,快报 ： 韶钢 松山 钢铁 板块 新龙头 未来 3 个 月 目标 位 15 元 
1,老友 共勉 之 三年 不鸣 一鸣惊人 三年 不飞 一飞冲天 
0,隆基 股份 601012 ) 融资 融券 信息 06 - 14 ) z 
1,如果 没有 中国 铝业 锂电池 材料 是 无法 生产 出 石墨 烯 锂电池 
-1,东财 主力 别洗 越 洗 散户 越 多 往上拉 让 没 买 追高 
1,今天 稀土 价格 开始 今年 第 2 轮 上涨 第 2 轮主升浪 开始 
-1,我 觉得 炒股 最 错误 选择 就是 1166 全仓 买入 厦门 国贸 
1,第二 波 行情 启动 第二 波会拉多 高 这要 看 庄家 心情 
-1,一万个 曹 尼玛 从 心中 奔腾 而 过 - 2 割肉 明天 希望 低开 
1,租售 同权 600684 不到 7 元 10 倍 市盈率 有 问题 吗 
-1,今天 洗出去 不少 明天 伴随 着 是 拉升 与 踏空 者 sb 悲哀 
1,中国联通 不 差钱 ： 总 授信 3400 亿 逾 六成 闲 账 上 睡觉 
1,继续 出货 人 做 天 看 最后 一秒钟 出货 准准准 
1,把握 点 常熟 银行 601128 银行 牌照 稀缺性 业绩 
-1,这水 跳 太假 起码 要 跳 10 才行 尼玛 才 跳 036 
-1,不 搞 点 下 事来 让 你们 怎么 明白 什么 是 亏损 股 枪打出头鸟 
-1,公司 故意 弄 卖 上当 捂 好 自己 筹码 别 被 骗 
-1,11 月 有 4767 亿股 解禁 没有 那么 傻 主力 去 抬轿 
-1,身为 国电 高层 二奶 我 410 进 让 我 如何 面对 姘头 
0,国电电力 这样 情况 我 是 继续 补仓 还是 减仓 持有 呢 
-1,尾盘 进 10W 股 不是 今天 最高价 买 明天 爱 砸 低 就 砸 低 
-1,你 牛 B 今天 进 亏了 03 吓死 我 
1,明天 开盘 一字 涨停 全天 涨停 参照 中科 信息 因为 巨量 好 
0,各位 股民 朋友 乐 视网 停盘 前 是 30 多 咋 么 现在 是 15 多 
0,阳光城 万业 企业 万泽 股份 上海 临港 世 联行 新城 控股 
1,002419 天虹 股份 前 三季度 预计 劲 增近 五成 
1,隆鑫 通用 为 高层住宅 生产 超 静音 备用 发电机 市场前景 广阔 
-1,换股 如 嫖娼 次次 都 被 抓守股 如 守寡 天天 想 犯法 横批 
0,提示 : 白酒 类 开放式 基金 可以 开始 赎回 可 换入 上证 500 
-1,格力 这是 得罪 被 打压 如此 惨 马币 吕 机子 近 
1,今天 明天 大盘 冲高 明天 大盘 开始 回调 目标 3256 
-1,主力 诱多 完毕 主力 开始 阳痿 韭菜 们 快 跑 就 哈哈哈哈 
1,仙人指路 中科 曙光 603019 迅速 封板 839 要 咋样 
-1,叼 剧妈 以后 有 中国 两个 字 股 打死 都 不 买 中国 套路 深 
-1,来个 涨停 吧 表示 一下 给 大伙 证实 一下 你 努力 进取 谢谢 
1,庄哥 真牛 意在 长远 佩服 佩服 长牛 开始 将 超越 讯 飞 
-1,贪婪 也 是 好事 国电电力 我 重仓 后面 走势 如何 把 控 难受 
-1,今天 亏 6 明天 补给 我 拉高 就 跑 管 你 涨停板 不错 过 6 就 跑 
1,中国 实施 石油 人民币 计价 用 黄金 做 担保 美元 扑街 哈哈 
-1,黄金 股 主力 领先 期货 走势 黄金 股 都 低 开低 走 下午 期货 必 下跌 
1,预计 还有 一 波拉 升到 2800 左右 这一 波拉 升会 死 很多 空头 
-1,这个 二 逼 主力 减仓 这么 多 到底 出 几手 多单 哦 搞不懂 
1,基因 概念股 龙头 ： 华兰 生物 002007 超越 华大基因 
1,提示 : 白酒 类 开放式 基金 可以 开始 赎回 可 换入 上证 500 
1,603389 亚振 家居 小盘 次 新 超跌 上涨 欲望 强烈 
-1,故意 搞 成 违法 是 为了 骗筹 低价 增发 要 举报 公司 犯法 行为 
1,空 只要 36 万手 打压 筹码 多方 一口气 吃掉 即时 一飞冲天 
-1,国企改革 股 不要 玩 再次 提醒 都 是 伤心 地方 前车之鉴 
1,提示 : 白酒 类 开放式 基金 可以 开始 赎回 可 换入 上证 500 
0,方大 炭素 外围 资金 再次 进仓 终于 等到 这周 走势 如何 
1,国电电力 外围 资金 再次 进仓 终于 等到 眼泪 要 流下来 
-1,又 是 银行 股 尾盘 发 力护 盘 [ 不 说 ] 又 是 银行 股 尾盘 发 力护 盘 
1,孙宏斌 把 乐视 电视机 销售 问题 解决 其它 问题 就 不是 问题 
1,有 钼矿 小盘股 一 开采 就 不是 这个 价了 睇 下 华友 和 赣峰 
-1,做人 要 有 人格 不要 把 自己 变成 千夫所指 万人 唾骂 搅 屎 棍 
-1,什么 时候 大盘 调到 3256 点想 补仓 时间 管住 自己 手 
-1,早上 开盘 挂 135 单 还 指望 做 T 直接 飞 一万 手 
-1,小单 拉大 单出 你们 还 看 不 明白 吗 别 被 股 吧 里 骗子 给 骗 
-1,不要 因为 一些 伎俩 就 可以 漫天过海 要 知道 天下 不缺 聪明人 
-1,量 能 不大 大家 恋恋不舍 明天 不涨 或 不涨 5 该票 就 完蛋 
0,本周 跌到 14 元 以下 我 就 小 仓位 买点 计划 至少 持有 一个月 
-1,心累 又 套 厦门 国贸 主力 不会 跑 路 吧 这里 可以 去 补仓 吗 ? 
1,人脑 工程 加速 上涨 中 已经 进入 主升浪 请 大家 把握 机会 
1,宝泰隆 又 套 还有 补仓 价值 吗 接下来 是 走 是 留 今天 手贱 
1,美元 对 人民币 贬值 趋势 已 开始 坚定 持有 人民币 抛弃 美元 
1,又 到 昨天 低点 多 一把 玩玩 各位 随意 哈 今晚 美帝 开盘 
-1,主力 又 来 阴谋 技术 以为 跌穿 20 日线 就 加空 彻底 毁 你 三观 
1,强烈推荐 600303 曙光 股份 半年 业绩 058 元 成长 可 期 
1,12 家 银行 排队 掀 “ 上市 潮 ” 渴求 补充 资本 募资额 或 达 数百亿 
1,= = 比比 300571300613 就 知道 杰恩 优势 所在 
0,明天 开始 调整 下午 都 有 放量 下跌 不 知道 缺口 能 不能 支撑 
0,我 娘 吓 出 一身 阿富汗 明天 如果 低开 就 会 回到 解放前 
1,尾盘 挂 3477 元 居然 3513 元 成交 真 神奇 
-1,一系例 动作 原来 是 给 利好 出来 之前 好好 洗 把 庄 你 够 狠够 精明 
-1,股价 遭遇 中长线 下降 趋势 线 上轨 压制 放量 回调 探底 概率 增加 
1,国电电力 一 重大 动作 将 影响 后期 走势 散户 不得不 知道 几点 
1,锌业 股份 ： 主力 还 能 拉升 吗 是 继续 持有 呢 还是 现在 果断 出掉 
1,东莞 证券 上市 是 我们 每个 人 期待 让 我们 相约 598 元 
-1,大跌 庄家 脑代 没 被 驴 ti 金子 大涨 铜大涨 紫金 矿业 会 大跌 吗 
-1,安阳 钢铁 太 垃圾 拖累 韶钢 8 毛 以下 分批 建仓 再 跌 再 补 
-1,京东方 A 五元 预 估价 等于 井底之蛙 或 只是 个 屁 而已 
1,怎么 看 都 是 洗盘 因为 中国 铝业 锂电池 资源 是 目前 国内 最大 
-1,早上 15 清仓 下午 能 接回来 么 目标 145 左右 还 T 飞 
1,好好 拿稳 自己 手中 每 一个 筹码 中铝 开始 进入 不断创新 高 模式 
-1,庄家 还 吗 还有 18 亿 债转股 没 完成 9 月 1 日仅 转股 113 股 
-1,26480 附近 做 多 目标 看到 26500 左右 止损 26460 
-1,庄家 太 扯淡 煤炭 版块 都 变红 神华 还 这里 疯狂 压制 股价 
0,江粉 磁材 今天 什么 情况 是 该 加仓 呢 还是 丱 减仓 大家 都 怎么 看 这票 
0,炒股 最大 快乐 就是 自己 买 票大涨 自己 来 票 大跌 不是 吗 
-1,科大 讯 飞 16 天 资金 净 流出 52 亿 庄家 已快 出 完货 要 大跌 
-1,中国 亚马逊 哈哈哈 骗 傻 逼 呢 中国 还 能 出 亚马逊 吹牛 亚逊 吧 
1,锂电 都 涨 疯 最 垃圾 亿纬 也 不少 更 不要 说 赣锋涨 好几倍 
0,疑 贪婪 也 是 好事 宝泰隆 我 重仓 后面 走势 如何 把 控 难受 
1,感谢 主力 今天 4 出完 哈哈 小 赚 8 点 今天 进 明天 堪忧 
-1,汉王 科技 又 套 还有 补仓 价值 吗 接下来 是 走 是 留 今天 手贱 
0,不忘初 心方能 始终 初心易 说 始终 难守 每 一天 我 与你同在 
-1,真的 是 熊股 跟 跌 不 跟 涨 看来 这个 庄家 和 游资 水平 差 太远 
-1,不是 看 多久 能张 看空 就 会 跌 股市 是 博弈 市场 再 等 两个 月 吧 
1,特斯拉 盘后 股价 大涨 近 8 A股 “ 小伙伴 ” 望 受益 000005 
1,600067 维持 12 元 评级 私募 基金 要 翻本 就要 炒 600067 
-1,春之土 狼 预言 成 真 真的 还有 境外 势力 想 夺取 保 千里 控制权 
-1,日 他妈的 今天 放天量 大 阴棒 真 大 很漂亮 主力庄家 是 玩 棒棒 
-1,资金 这样 流出 估计 又 要 出 什么 大 利空 苏宁 庄家 就是 一 垃圾 网吧 蛋 
-1,让 股民 们 一起 为 梦想 而 窒息 [ 想 一下 ] 让 股民 们 一起 为 梦想 而 窒息 
1,庄家 看看 我 操作 咋样 你 慢慢 玩吧 我 赚点 香烟 钱 走 886 
1,八一 重组 不是 金融资产 剩下 韶钢 有 可能 重组 金融资产 宝武 资本 
-1,9 月份 收盘价 10 元 上下 五毛钱 庄狗 好好 乖乖 听话 枱 轿 哦 
-1,涨多 就要 调整 建议 大家 现在 都 不要 买 等 调整 到位 后 再 进入 不 迟 
-1,对 价值 投资 赤裸裸 羞辱 连 除权 价都 达 不到 还 好意思 赶紧 睡 吧 
1,不 懂 政治 炒 不好 股 难道 你们 不 知道 么 哈哈 快马 上涨 起来 
-1,幸亏 跑的快 要 不 又 入 坑 哈哈 你们 跑 没 明天 跌停 
1,中信 国安 超级 无敌 主力 驻守 只 等 360 发行 上市 启动 飓风 行情 
-1,尾盘 主力 机构 采用 是 机器 交易 没有 用 手工操作 完全 不负责任 
-1,呵呵 咋天 是 要 要 要 发 今天 趺 四分 今要 要 要死 明天 怕 会 要 涨 吧 
-1,上周 就 说 这 是 死 人股 今天 没 走 明天 全套 明天 不 向下 跳空 才 怪 
1,重大 消息 汉王 科技 突破 这 一点 位才 会 一飞冲天 想 赚钱 关注 这里 
1,财经 头条 发改委 ： 7 月 核准 固定资产 投资 22 个 投资 1655 亿 
1,皖维 高新 600063 ： 醋酸乙烯 涨价 带来 投资 机会 必将 大涨 
1,我们 发现 今日 深股 通及 沪 股通 海外 资金 疯狂 买入 A股 简直 就 象 抢 
-1,创业板 开始 割 韭菜 创业板 开始 割 韭菜 创业板 开始 割 韭菜 
-1,有人 纠集 违法 团伙 筹集 大量 资金 炒作 次新股 
-1,方大 碳素 也 配 跟 科大 讯 飞 华大基因 比 有些 人 真是 不要脸 哈哈哈 
1,重大 消息 方大 炭素 突破 这 一点 位才 会 一飞冲天 想 赚钱 关注 这里 
-1,为什么 拿 一个月 还是 上 不 去 今天 又 加仓 难道 真的 没戏 
-1,炒股 真的 要 能 忍 上次 浙商 我顶 一个多月 这次 刚进 嘿嘿嘿 
1,你们 这些 带血 筹码 都 将 成为 我们 以后 盈利 谢谢你们 这些 股市 小偷 
-1,半年 收入 8 千万 净利润 - 145 亿元 这样 业绩 我 晕死 买 
-1,妹 害 不少 小散 高位 接盘 然后 一路 打压 难道 你 敢 砸 跌停 吗 
-1,2270 成本 好 恼火 停牌 几个 月 竟然 是 这个 样做 股东 
1,空 出 资金 等待 明天 股价 如果 再次 下探 我 果断 入手 抛出 其他 股票 
1,明天 直冲 涨停板 起飞 时机已到 看空 必 傻眼 此股 至少 30 不卖 
-1,科大 讯 飞 现价 5947 元 必跌 无疑 再 买 必套 201795 
-1,中国 神华 明天 下跌 是 大 概率 估计 宝宝 明天 会 回调 大家 可 择机 进入 
-1,耐心 点 吧 下个月 是 4 季度 资金 开始 回笼 明年 看看 会 不会 好点 
-1,下不去 美元 要 反弹 大家 有 黄金 小心 买 美元 多 开始 
-1,拉 尾盘 巨量 出货 一天 双头 还有 哪个 幻想 明天 反包 赶紧 醒醒 吧 
-1,国电电力 明天 有 什么 动向 吗 目前 是 出 掉 还是 要 继续 持有 有 好 
-1,换 霉纸 五十 干 熬更守夜 苦无眠 一心 发财 难 圆梦 劳思 伤神 命短 年 
1,皇氏 集团 002329 万达 私有化 概念股 有望 开始 爆发 ： 即将 大涨 
1,即将 大涨 : 皇氏 集团 002329 : 万达 私有化 概念股 有望 开始 爆发 
1,股价 现 4 元多 涨价 概念股 新龙头 ： 皖维 高新 600063 必将 大涨 
-1,然后 就是 11 - 12 月 岁 岁月 月 地 说 下去 一碗 狗 粮 好 有 魅力 
-1,山东 赫达 业绩 持续增长 超跌 次新股 细分 领域 龙头 底部 放量 突破 
-1,大家 歇 一歇 复牌 还有 20 多天 呢 临近 复盘 时 我们 再 来 华山论剑 哈 
-1,今天 收盘 站上 4037 明天 还有 一波 上 冲 站 不 上 明天 低开 跌成 狗 
0,连续 6 天 不破 涨停 那根 阳线 时间 久 点求 大神 分析 到底 是 好 还是 坏 
1,锂电池 今天 长得 不错 你们 不要 忘 中国 铝业 是 锂电池 材料 最大 制造商 
0,稍安 勿躁 看会 新闻 股价 就 涨 盯 盘 最累 也 最 容易 被 误导 做出 错误 决定 
1,真给 力涨 一天 036 跌 一天 035 给力 给力 真 给 力赞 
0,做 股市 中 傻子 买 一只 股票 要 做 就是 等 它 涨 而已 
-1,这 超级 垃圾 真 不要 逼脸 二个 大 阴线 大盘 快涨 到 3390 还 拼命 跌 
-1,其实 银行 股 经过 前期 一轮 上涨 股价 已经 不 便宜 他们 只是 护盘 工具 
1,场外 投资者 加紧 申购 开放式 股票 基金 分享 中国 资本 市场 对外开放 红利 
-1,最后 疯狂 两金出 差不多 就 差 最后 一急 跌 全部 鞋帽 扣篓 
1,65 元 还有 一个 业绩 盘子 等等 都 好 景兴 纸业 002067 [ 买 
-1,当 大家 都 喝彩 时候 我 选择 退出 等待 市场 再 一次 跌落 祝你们 青云直上 
0,使劲 反弹 吧 希望 今天 是 个 红 收盘 使劲 反弹 吧 希望 今天 是 个 红 收盘 
1,而应 本着 既有 原则性 又 有 灵活性 予以 科学 艺术 把 控 无疑 是 明智之举 
-1,流出 太多 保本 出 先 如果 明天 反包 再 打板 否则 等 回 踩 10 日 均线 
0,其实 我们 冷静 地 看看 索通 发展 华大基因 中科 信息 黑 股份 就 明白 一切 
0,中国 出版 明天 有 什么 动向 吗 目前 是 出 掉 还是 要 继续 持有 有 好 思路 
1,第一 创业 一大 转折点 来临 众 散户 把握 好此 机遇 看准 这点 赚钱 更 快 
1,韶钢 松山一 大 转折点 来临 众 散户 把握 好此 机遇 看准 这点 赚钱 更 快 
1,今天 不说 数字 这么 好 转身 机会 庄家 这 是 割 血 给 您 
-1,你 嘛 币 中 吕 钉子户 不是 说 要 到 10 元马 跌成 这样 你哥 大骗子 SB 
-1,恒指 下午 必 暴跌 500 点 恒指 下午 必 暴跌 500 点 恒指 下午 必 暴跌 500 点 
-1,妈 要 跌 就 跌 要 涨 就 涨别 这 要死不活 死 全家 还是 好玩 
1,一是 高 分红 279 元 每股 分红 一是 这 两个 月 煤炭 股 平均 涨价 超 20 
-1,哈哈 主力 把 几周 前 贴子 置顶 诱 多套 死 你们 这帮 傻鸟 散户 韭菜 呵呵 哈哈哈 
0,今天 收盘 就 2 分 正负 之间 主力 不会 太 过于 压 也 不 愿意 过于 拉 
1,低价股 ： 现 4 元多 涨价 概念股 新龙头 ： 皖维 高新 600063 必将 大涨 
1,乳品 上涨 龙头 ： 小盘 绩优 乳业 巨头 ： 皇氏 集团 002329 必将 大 爆发 
1,强势 涨停 机构 游资 敢死队 疯狂 抢筹 暴涨 飙升 超级 大 黑马 建科院 南卫 股份 
1,皇氏 集团 002329 万达 不断 重整 万达 私有化 龙头 必将 强力 上攻 
1,真正 超越 华大基因 业绩 每股 一元 002007 华兰 生物 必将 大 爆发 
1,9 月 金股 人工智能 中 信息 科技股 万达 信息 300168 大 黑马 要 把握 
1,真正 超越 华大基因 业绩 每股 一元 002007 华兰 生物 必将 大 爆发 
1,低价股 ： 现 4 元多 涨价 概念股 新龙头 ： 皖维 高新 600063 必将 大涨 
-1,好 无 征兆 下跌 这太惨 证监会 没事 瞎查 啥 这样 会害 多少 人 知道 吗 
-1,盘面 异动 泄 主力 新动向 午后 收官 或 难 有 大 作为 
1,6 月 制造业 PMI 为 517 连续 11 个 月 位于 荣枯线 上方 
0,能否 火 起来 取决于 这类 股 
0,A股 三大 变化 ： 并购 重组 增多 定增 回升 IPO 融资额 走低 
-1,颤抖 吧 7 月 万亿 资金 将 到期 央妈会否 亮出 鹰爪 
0,央行 连续 六日 暂停 公开市场 操作 本周 净 回笼 3300 亿元 
-1,险资 上半年 ： 举牌 近乎 绝迹 万能 险 骤降 9 成 还有 新 动作 
1,【 跟着 牛人 有 肉 吃 】 中小板 为何 牛 
1,曾 从 股灾 和 熔断 成功 逃顶 现在 这位 私募 牛 人 高喊 买买 买 
1,2017 下半年 买 啥 十大 金牌 券商 论道 出 真知 
1,新华社 ： 聚焦 上市公司 失信 行为 加强 监管 严惩 违法 失信 
1,央行 高层 密集 发声 下 一步 金融 改革 脉络 日趋 明晰 
0,展望 7 月 行情 做好 这 两件 事情 
-1,近 万亿 资金 将 到期 A股 成交量 不足 还 做梦 “ 七 翻身 ” 
1,错过 保险 股 大涨 不能 再 错过 它 下半年 最 确定 白马 是 
-1,隐约 嗅到 一丝 “ 暴风雨 ” 气息 
0,沪市 中 报 时间表 出炉 ： 安琪 酵母 天马 科技 7 月 13 日 率先 披露 
1,Q 肥 抢滩 深港 通 标的 股本 周净 买入 12 亿 下周 大涨 ～ 
-1,砸够 吗 继续 砸 亏 钱 砸 作孽 
-1,此庄 有 一套 边 压边 吸吃肉 不吐骨头 连汤 都 不 剩 中兴 和 重汽 都 边拉边 吸海能 庄是 老 司机 
0,陆家嘴 600663 ) 融资 融券 信息 06 - 29 ) 
0,天汽模 现在 是 继续 持有 呢 还是 先 卖掉 
1,江苏 银行 仅此 1 家 098 元 业绩 次新股 股价 不到 10 块 
1,希望 得邦 家电 股中 今后 象 这些 小家电 哥哥 一样 
0,安泰 集团 ≠ 现在 继续 持仓 拿 着 呢 还是 要 抛 
1,中 报 开启 高送 转 主题 或 再次 暴发 
-1,300355 节前 后市 反弹 持此 股 散户 此时 要 注意 是否 稳拿 抄底 
-1,从 775 跌到 675 时间 很 短量 也 小 反之亦然 
0,栋梁 新材 ≠ 看准 主力 资金 流向 等待 吃 肉 行情 
1,栋梁 新材 ≠ 看准 主力 资金 流向 等待 吃 肉 行情 
0,光明 集团 正式 执掌 开创 国际 
-1,这 换手率 次 新里 也 太 低 吧 
1,罗顿 发展 态势 已 明确 是 机会 还是 风险 已经 很 清楚 散户 们 把握 好 
-1,主力 你 赢 虽然 我 没亏 钱 但 我 意志 彻底 被 你 击垮 
1,002230 科大 讯 飞 洗盘 蓄势 一气呵成 利好 大 派送 
1,前 几天 和 进仓 平安 银行 16000 还是 很 强悍 
-1,? 危险 ? 科大 讯 飞 主力 蓄意已久 八亿 资金 悄悄 流出 均线 和 成交量 发出 危险 信号 tytrf 
-1,165 本 哪 辈子 能 解套 
0,现在 买入 合适 吗 说 下 对 这票 看法 
-1,中国 平安 将要 大跌 五大 征兆 
-1,最贱 股 就是 江苏 国泰 
1,锌业 股份 超级 利好 小荷 才 露 尖尖角 坚持 持有 
1,大禹 节水 今天 机会 来临 
0,卫光 生物 现在 什么 情况 是 该 加仓 呢 还是 减仓 
-1,现在 不是 慌 时候 诚邦 股份 大家 理清 思路 再下 断定 识破 今天 阴谋 
-1,可以 到 成都 看 成都 到处 都 是 力帆 共享 汽车 股价 这个 卵 样子 已经 走人 
0,东旭 光电 接下来 要 怎么 操作 是 该 继续 持有 还是 先 卖掉 呢 
0,忍一时 风平浪静 退一步 海阔天空 
1,最新消息 特斯拉 与 协鑫 集成 合作开发 多晶硅 电池 下周 有望 连 扳 
1,德 艺文 创 7 月 3 日 下午 将会 涨停板 
-1,我 卖 你 可以 拉升 
1,包钢 股份 牛股 特征 掌握 生命线 
1,白银 有色 新一轮 上攻 强势 启动 政策 受益 必 经久不衰 
1,明天 起码 涨 3 以上 
-1,八个 交易日 跌 七天 狗庄 你 还 想 咋 地 
0,601918 : 新集 能源 关于 股东 减持 股份 计划 公告 
1,坐等 海航 新 发展 美好 未来 前方 等 着 
-1,中国证监会 看来 柳钢 股份 可以 查查 中国 股市 就是 一个 小小的 恶庄 竟然 如此 狂言 ： 精 
1,第一 创业 主力 发出 做 多 信号 三大 攻击 方向 浮现 
1,看 今天 港股 本人 李坚明 真的 为 我 炒 中国 石油 股票 百战百胜 后 与 股市 再见 决定 感到 
-1,不 信 等着瞧 底部 从来 就 不是 我们 散户 
-1,贼 挨揍 不吃 肉 滚出 冀东水泥 股 吧 同意 顶 
1,惊 逆势 来袭 新 主线 机会 就是 它 
-1,湖北 广电 如此 下跌 的确 出人意料 看来 1613 元 增发 之事 已 大 股东 脑后 
-1,慌个 昨天 才 成交 百分 十 今天 百分 五十 就算 昨天 全出 还有 百分 四十 
1,今天 再 从 价值 投资 来 分析 一下 为什么 买 数据 港 可以 说云 计算 和 大 数据 是 未来 所有 先 
-1,安泰 集团 你 还 能 跌 到 什么 位置 
-1,上海 洗霸 不仅 是 底部 反 抽冲 高 这么 简单 这些 风险 接下来 一定 要 注意 
1,保变 电气 突破 信号 渐显 主力 暗中 布局 一点 站稳 后 强势 拉升 
0,投资 就是 投机 这些 小 技巧 让 你 把握 投机 最佳 机会 
1,美盛 文化 主力 正在 盘整 见好就收 不要 恋战 
0,澄星 李兴 [ 代 ] 老虎 控股 是 诈骗 已 落网 
0,万科 董秘 朱旭 ： 换届选举 还 会计年度 之内 符合规定 
-1,今天 进 星期一 哭 晕 厕所 勿 喷 看 结果 
1,周 k 线 漂亮 双底 
0,天汽模 是否 能 强势 拉升 加仓 合适 吗 
1,七月 鲜花 开 满 大地 
-1,狗 杂种 雄安大涨 你 还 大跌 
1,这 还有 啥 说 多头 太强 上天 吧 
0,格力电器 接下来 要 怎么 操作 是 该 继续 持有 还是 先 卖掉 呢 纠结 
-1,“ 亿纬锂 能 ” 庄家 故布 疑阵 刻意 隐瞒 重大 玄机 明天 可以 继续 加仓 吗 散户 预知 答案 必看 下文 hfyt 
-1,格力 地产 99 股民 都 有 这些 心理特征 难怪 你 会 亏 钱 
-1,603326 利好 背后 隐藏 利空 危机 
1,大胆 预测 国安 本轮 炒作 至少 35 元 
-1,南 都 垃圾 之王 
-1,复牌 估计 五个 跌板 这 还是 少说 
1,000507 珠海 港 英雄 是 时代 产物 龙头 是 行情 需要 
1,杭萧 钢构 注意 注意 将 有 一波 波动 看准 时机 
1,600522 中天 科技 这个 才 是 真正 历史 转折点 
-1,科大 讯 飞 : 是不是 要 清仓 还有 机会 吗 
1,深圳 三宝 腾讯 华为 华大 
0,601258 : 庞大 集团 关于 出售 子公司 股权 公告 
-1,又 开始 讲新 故事 随意 任性 停牌 复牌 等 着 连续 跌停 吧 垃圾 公司 故事 大王 
-1,周末 出 重磅 外围 大 利空 最新消息 
-1,不要 埋怨 别人 让 你 失望 怪 你 自己 期望 太 多 
-1,逗逼斗 粪 躲 到 哪里 去 玩 短线 玩 到 短路 
-1,ST 生化 遭 浙民投 强势 要约 收购 引 监管部门 关注 
1,看量 星期一 应高 开四到 六个 点 
1,603326 节前 不断 利好 位置 上升 行情 个股 此时 必将 赚取 更大 利润 
-1,今天 翻红 是 为了 明天 更好 下跌 明天 是 黑色 周四 
1,支持 汪总 坐等 大涨 
1,下跌 建仓 迎接 主升浪 
-1,逻辑 这么 混乱 是 怎么 混 到 浙大 博士 ? 
0,天汽模 下周 是 继续 持有 呢 还是 先 卖掉 呢 
1,复盘 ： 次新股 表现 活跃 狙击 26 只 涨停 个股 名单 
1,300312 邦 讯 科技 跨过 这个 坎 就是 主升浪 开启 
1,真金不怕火炼 实力 不怕 连载 
-1,理性 思考 不要 被 情绪 裹挟 再 这么 闹 下去 受伤 是 我们 自己 
1,7 月 突破 向上 
1,六月 大盘 已 埋下 希望 种子 
-1,恒生 电子 ： 接下来 注意 两大 阻力位 近期 将 有 下跌 趋势 散户 务必 小心 
1,000050 深 天马 A 利空 被忽视 发酵 新一轮 空头 主力 揭开 帷幕 
-1,嘉化 能源 超大 股价 恶意 压低 股价 还好 下午 低价买进 等待 下周 拉升 准备 好 充足 准备 
0,操作 技巧 ： 面对 掌趣 科技 当今 变动 是 走 是 留定 要 注意 这点 
1,券商 股 狂飙 
0,七月 市场 究竟 会 如何 走 
1,中国 太保 或 展现 更 多 话语权 现在 就是 追涨 熊市 
-1,空袭 开始 暴跌 1644 见 
-1,爱建 举报信 最新进展 ： 录音 证据 揭华豚 “ 暗仓 ” 收购方 陷 质疑 
1,联络 互动 一大 利好 来袭 三方 资金 流入 支撑 反转 信号 启动 握紧 筹码 
1,大盘 果然 还是 按 我 霸天 第一 设想 先探 3170 再 涨起来 
0,白云山 28 ～ 30 一道 风景 35 ～ 50 第一 春季 60 ～ 100 盛夏 时节 300 ～ 50 
1,亚兰 与 温太 将 太化 上面 走向 覆灭 
-1,典型 皮包公司 垃圾 公司 不断 地 1PO 上市 
-1,西山 煤电 将要 大跌 五大 征兆 
-1,博深 工具 发来 回调 信号 第三方 资金流 走 股价 将会 大跌 不 信 我们 拭目以待 
1,登高 望城 入斜 影半风 薰 
1,融创 5 月 销售 是 恒大 541 ～ 5 月 销售 是 恒大 46 恒大 市值 2075 亿 
1,特写 ： 大唐 ： 5G 信息安全 IoT 新 成果 闪耀 2017MWC 上海 
1,前 几天 和 我 1174 本进 仓 汤臣 倍 健 16000 还是 很 强悍 
-1,常山 药业 超大 开始 压低 股价 下个月 低价买进 增加 仓位 先 把 仓位 稳定下来 等待 拉升 
1,渤海 股份 将要 大涨 五大 征兆 
-1,不要 被 这个 假象 迷惑 “ 城投 控股 ” 主力 背后 阴谋 已经 出现 看 这里 
0,赛为 智能 是否 能 强势 拉升 减仓 操作 合适 么 
1,半年报 增长 王 
1,不用 太 担心 复牌 一个 涨停 是 有 重组 失败 也 跌 不到 哪里 去 
1,国务院 批准 黄金 TD 崛起 
-1,科锐 国际 将要 大跌 五大 征兆 
-1,狗庄 尾市 要 跳水 
0,还是 那句话 今日 是 重中之重 
1,大唐电信 将要 大涨 三大 原因 
-1,震撼 公告 : 杰恩 设计 狂跌 模式 开启 赶紧 出手 才 是 良策 
0,芒果 复盘 以后 80 以下 买 到 就是 福气 
-1,周一 大幅 低开 5 个点 左右 半个 钟内 趴 跌停 [ 胜利 ] [ 胜利 ] [ 胜利 ] 
-1,亏 10 个点 坚决 割 
0,现在 买入 合适 吗 说 下 对 这票 看法 
-1,汉钟 精机 你 能 跌 到 什么 位置 
1,都 淡定 凭良心 温氏 这么 多年 没有 亏待 我们 股民 相信 温氏 
0,下半年 A股 机会 哪 
1,加仓 买 
-1,今天 尾盘 不会 再 异动 翻红 变脸 开始 速卖 
1,许继 电气 ： 锐涨 之 势不可挡 三要素 
1,华豚 幕后 老板 钱永伟 不可告人 秘密 请 进 
0,万达 电影 今天 买 1500 手下 周该 如何 操作 
0,601800 : 中国 交建 主体 与 相关 债项 2017 年度 跟踪 评级 报告 
0,珠海 港 持有 还是 继续 加仓 
-1,傻 逼 韭菜 看清楚 
-1,听说 广州 基金 被 自己 蠢死 
-1,上窜下跳 太 没有 血性 
-1,今天 接到 律师 电话 说 文峰 股份 索赔 撤诉 白白浪费 几千 诉讼费用 有苦难言 
-1,000806 银河 生物 变盘 即 接下来 就 危险 
1,两主 异常 必涨 我们 一同 见证 奇迹 
1,601668 中国 建筑 主力 开始 开工 就是 现在 突破 11 不是 梦 
1,科大 讯 飞 这周 股价 还是 成 拉升 状态 下周 开盘 低价 吸股 等待 拉升 
1,绿地 控股 最新 利好 这一 买点 切勿 错失 
-1,狗 杂种 你 有种 再往 下 砸 
-1,宝能 不 出席 万科 股东大会 
-1,000709 河钢 股份 长线 利空 那 就 可怕 
-1,300014 节前 盘面 隐藏 两大 罕见 异象 此时 散户 要 火速 减仓 
1,欢迎 长安汽车 融资 达到 新高 22 亿 
1,MSCl 入选 股 全球 投资人 投资 股票 我们 都 知 
1,000960 锡业股份 主力 观察 已 久 近期 或 有 大 动作 
1,002230 科大 讯 飞 洗盘 蓄势 一气呵成 利好 大 派送 
1,[ 满仓 ] 空 焦煤 焦炭 发大财 赚大钱 正 当时 均线 被 击穿 [ 赚大 ] 
1,300312 邦 讯 科技 跨过 这个 坎 就是 主升浪 开启 
0,罗顿 发展 600209 ) 龙虎榜 数据 06 - 30 ) 
0,走 快速通道 周日 晚上 宣布 停牌 上 会 
1,NGS 接龙 丨 中科院 北京 基因组 所于 军 ： 基因 行业 探路 艰难 前途 光明 
0,满仓 等 抬轿 这个 周未 再 搞 个 几亿 人民币 来 下周 继续 加仓 笑 到 最后 由 国家 来 
0,除了 圣阳 目前 还 持有 贵州 茅台 
-1,下周一 可能 不复牌 要 过 一段时间 才 开盘 
-1,002456 欧菲 光变 盘 即 接下来 就 危险 
-1,庄家 洗盘 到位 今天 出局 要 哭 晕 厕所 
1,凯 瑞德 发布 年度报告 大 股东 增持 再 传 利好 消息 
0,唱 多 唱空 看看 历史 贴 大家 就 明白 
1,下星期 一旦 30 分 KD 金叉 立即 满仓 
1,尖峰 集团 2 年 突破 80 元 不是 梦 拥有 2 个 抗癌 新药 核心 产品 
0,龙洲 股份 坐等 你 再次 拉升 
0,河北宣工 : 关于 公司 发行 股份 购买 资产 并 募集 配套 资金 暨 关联 交易 事项 获得 中国证监会 核准 批复 公告 
1,万华 化学 最新 利好 这一 买点 切勿 错失 
0,天汽模 各位 股友 打算 去 补仓 趋势 适合 吗 主力 这里 现在 是 什么 情况 
1,建投 集团 今天 对接 雄安 劳务 与 大央企 一起 
-1,广州 基金 回复 内容 简直 苍白无力 
1,000600 筹码 分布 诠释 一切 
1,上海 洗霸 ： 360 转变 超级 黑马 
1,新能源 汽车 是 政策 大力支持 推广 产品 曙光 方向 不会错 
0,国企 重组 或 借壳 是 解决 股市 历史 遗留问题 根本 方法 
1,恒指 收跌 077 半年 涨 17 领涨 全球 主要 市场 
-1,绿帽子 又 删真 可惜 你 广告 又 少 一条 删 解决不了 问题 给 你 二个 建议 一 去掉 你 
0,联络 互动 今天 买 1000 手下 周该 怎么 操作 
-1,西部 建设 股价 直线 回调 看来 下个月 日子 不好过 呀 这 几天 还是 要 多 注意 风险 点 
1,晨鸣 纸业 ≤ ： 应该 是 个 起点 追进 还 来得及 不 ? 
1,瑞康 医药 ： 酝酿 许久 利好 来袭 
1,中兴通讯 ≤ ： 主力 被 敲 闷棍 空头 开始 占据 上风 调整 目标价 
0,珠海 港 今天 买 1000 手下 周该 怎么 操作 
-1,养老保险 记账 利率 飙升 至 831 背后 偿付 压力 
-1,周一 别 追马前 炮 提醒您 下 只 － 涨停 后 
-1,傻 吊 版主 跟 我 作对 包 你 输钱 杀到 你 倾家荡产 傻 吊 
0,永悦 科技 这 支票 该 加仓 还是 减仓 呢 
-1,深 天马 A ≤ ： 短线 回调 完毕 小幅 拉升 即将 开启 小散们 莫要 杞人忧天 
1,今天 全仓 开板次 新 [ 牛 ] [ 牛 ] [ 牛 ] [ 献花 ] [ 胜利 ] [ 胜利 ] [ 胜利 ] 
-1,广州 基金 老鼠 仓 愿意 转让 都 有 内部 交易 嫌疑 
0,海航 创新 ： 子公司 19 日起 免收 九龙山 景区 门票 
1,李董 质押 3 千万 股一是 表明 对国轩 未来 信心 二是 为了 借到 钱 好 参与 接下来 配股 
-1,这么久 也 没点 重组 消息 出来 真想 坑 死 小散 
1,华北 高速 : 连续 大涨 这 是 个 顶 
1,首创 入摩四 渡赤水 定 增雄安 扬帆 起航 
-1,龟儿 你 卖出 华邦 3 日内 死 心 都 有 
-1,曹 尼玛 资源 大牛市 你 就 不能 打 下来 让 大家 都 吃 一点 吗 光 自己 吃独食 
1,新 能源行业 是 十三 五 规划 重点 很多 企业 都 要 进入 但是 华泰 新能源 汽车 上 有 优势 1 本身 进入 行业 就 早 发展 也好 
0,A股 分红 派息 实施 公告 
1,000970 中科 三环 最强 买点 已 来临 
0,小琴 不 举牌 原因 大家 分析 一下 
0,东旭 光电 还 能 继续 持有 吗 还是 卖掉 
-1,华豚 集团 采取 不 正当 手段 占用 合资 公司 互联网 募集 资金 进行 证券市场 股票买卖 
-1,股市 走势 预警 ： 慎防 大盘 周线 级别 回调 
0,河钢 股份 可以 继续 持有 吗 还是 出 呢 
1,1228 公告 不 注入 赣州 稀土 前置条件 南方 稀土 大 集团 组建 完成 了昌九该 给 投资者 一个 答复 
0,罗顿 发展 现在 是 继续 持有 呢 还是 先 卖掉 呢 
-1,黄伟 你 是 中技 系 成清波 狗 
0,600537 : 亿晶 光电 关于 光伏 发电 项目 并网发电 公告 
1,再次 提醒 大家 华讯 方舟 科技股 中 茅台 中长线 满仓 持有 目标 价格 55RMB [ 献花 
-1,表子养 你 干脆 弄个 跌停 
0,联络 互动 现在 是 继续 持有 还是 先 卖掉 
0,北 新 路桥 ： 能加 仓 吗 还 会 不会 涨 
-1,万科 股东大会 投票 结果 出炉 ： 产生 新 董事会 王石 不再 担任 董事 
-1,圈钱 是 中国 股市 最大 目的 不是 吗 ? 
-1,家 等 那 几家 中介 恶 炒
0,三一 重工 现在 加多少 仓 合适 
0,方大 炭素 接下来 要 怎么 操作 是 该 继续 持有 还是 先 卖掉 呢 纠结 
-1,北冥 万手 哥来 与狼共舞 黑暗 深渊 血水 中 慢慢 吸干 散户 血 
1,中科 电气 主力 拉升 开始 现在 进入 还 不晚 需要 注意 压力 位 这波 目标 高 418 
-1,科大 讯 飞 七月 变盘 即 小心 
1,茅台 又创新高 迈向 500 元 
0,庞大 集团 可以 继续 持有 吗 还是 出 呢 
1,国泰君安 下周 延续 盘升 格局 
1,鹭燕 医药 补涨 及 
0,600091 : ST 明科 委托 理财 公告 
-1,被 自己 人 举报 华豚 这样 企业 广州 基金 为什么 要 选择 
0,科大 讯 飞 ： 你 必须 要 知道 消息 ll 
1,锡业股份 以静 制动 精彩 后面 
0,珠海 港 现在 是 继续 持有 呢 还是 先 卖掉 
0,京东方 A 持有 还是 继续 加仓 
0,嘉化 能源 已 探明 
1,高送 转 大 毒瘤 也 将 因此 而 摘除 
0,新疆 高院 再审 进展 怎么样 重整 该 怎样 按照 法律 走 就是 
-1,【 跟着 牛人 有 肉 吃 】 本周 大盘 压力 非常 大 
0,早盘 内参 ： 明年 起资管 产品 运营 按 3 缴纳 增值税 
1,保监会 绿灯 放行 一类 股 或 迎 机会 
1,A股 下半年 展望 ： 市场 将 迎来 史诗 般大 时代 
1,7 月份 初 A股 重大事件 3 大 行业 有利 好 附股 
1,3 个 月 内 2000 篇 研报 都 讲 这个 主题 或是 下 一个 “ 漂亮 50 ” 
0,联络 互动 ： 今天 会 是 什么 情况 持有 还是 出掉 
1,等待 黎明 浙江 东日 上涨 前滴 忍耐 期 
-1,缩量 上行 诱多 不成 放量 断头 选择 离场 小心 
-1,草泥马 垃圾股 害人 
1,预计 17 年 16 月 净利润 较 上年 同期 出现 大幅度 增涨 
1,73 重点 关注 个股 我乐 家居 天马 科技 浙商 证券 
1,七月 开瓢 满堂红 沪 综 补缺 上 突收 3212 之上 
1,股市 制胜 法宝 - 持筹 比例 
1,股性 越 差越 难 赚钱 
-1,不会 要 跌停 吧 
0,以 晨鸣 最近 6 年 来 一 季报 净利润 与 年报 净利润 对比 分析 
1,紫金 黄金 601899 业绩 增长 14001500 同比 增长 近 15 倍 
-1,萧儿 当托 下场 是 很惨 快 悬崖勒马 吧 
0,搏一博 单车 变 摩托 再 拼 一年 看看 赚 多少 
1,九安 医疗 必涨 85 元 等 着数 钱 
-1,祖辈 喷喷 死 父辈 喷 也 喷 死 孙子辈 喷 ― ― 
-1,套牢 资金 对 敲 自救 
-1,广州 基金 回复 内容 简直 苍白无力 
-1,无天 佛祖 1 猪狗不如 长期 顶 它 妈 B 
1,智能 自动 300407 年报 6 毛雄安股 20 不高 实话实说 
0,出 不少 货 
0,周五 加仓 三千 股 今天 会涨 吗 
-1,珠海市 欧 比特 投资 咨询 有限公司 犯有 操纵 市场 股价 罪 
1,人工智能 概念股 科大 讯 飞 今日 再度 冲击 涨停 中科 创达 有 强烈 补涨 需求 
0,从 昆药 发展 历程 来看 其 投资 价值 
1,科大 讯 飞 刘庆峰 ： 国家 AI 发展 规划 将 带来 何种 机遇 
1,600606 仅 公布 资产 已超 4000 亿 高于 市值 3000 亿 
-1,集合 价好 吓人 
0,关于 威海 华东 数控 股份 有限公司 股票 临时 停牌 公告 
0,二三 四五 手里 还 拿 着 这股 呢 现在 是 减持 还是 再 补 一些 
-1,这 就 结束 [ 为什么 ] 
-1,套牢 资金 对 敲 自救 
-1,一帮 农民 涨 一点点 就要 卖 
1,明天 烽火 必须 学 红箭 不然 抽死 你 [ 不屑 ] 
0,科锐 国际 这 股 目前 是 加仓 持有 还是 抛出 
0,上市公司 粉饰 报表 扰乱 市场 当以 重典 惩罚 
1,天时地利人和 下半年 股市 趋势 向上 
0,国投 安信 期货 研究院 院长 
-1,任泽平 ： 中国 不 具备 货币政策 持续 收紧 宏观 周期 条件 
-1,才 赚 一万五 就 吓跑 
